{
  "tcnt": 65,
  "out_param": {
    "tBgramLen": 0,
    "AttendyMin": null,
    "cat": [
      "53"
    ],
    "strQttl": "",
    "qBgram": [],
    "qBgramLen": 0,
    "qPrecision": 0.8,
    "pageCount": 12,
    "notHasTtl": true,
    "filter": {
      "q": "공유주방",
      "page": "4",
      "tcnt": "65",
      "format": "json",
      "controller": "search",
      "action": "spaces",
      "order": "BEST_DESC"
    },
    "skipCount": 36
  },
  "searchParam": {
    "original_query": "공유주방",
    "refined_query": "공유주방 ",
    "typed_querys": [
      {
        "name": "공유주방",
        "type": "CATEGORY"
      }
    ],
    "localities": {
      "strategical_cortar_info": [],
      "city_cortar_info": [],
      "dvsn_cortar_info": [],
      "sec_cortar_info": []
    },
    "categories": [
      {
        "catSeq": 53,
        "catNm": "공유주방"
      }
    ],
    "terms": [],
    "title_terms": [],
    "from_main_search": false,
    "is_subway_search": false,
    "page_count": 12,
    "total_count": 65,
    "page": 4,
    "skip_count": 36,
    "check_coupon": false,
    "seperated_queries": [
      null
    ],
    "ttl_matched": ""
  },
  "filter": {
    "q": "공유주방",
    "page": "4",
    "tcnt": "65",
    "format": "json",
    "controller": "search",
    "action": "spaces",
    "order": "BEST_DESC"
  },
  "result": [
    {
      "spcSeq": 32589,
      "rsvMthCd": "FIXPY",
      "spcNm": "수원 광교 호수뷰 스튜디오이든",
      "rsvTpCd": "TIME",
      "zzimCnt": 17,
      "spcRepImgUrl": "https://moplqfgeemqv2103108.cdn.ntruss.com/service/162211101_7ce7fd23fe2ce4cd9f2f41cfe54548e1.jpg?type=m&w=900&h=900&autorotate=true&quality=90",
      "spcTpCd": "MEET",
      "minPrc": 17000,
      "maxPrc": 17000,
      "maxUser": 10,
      "lat": "37.28748089",
      "lng": "127.06017844",
      "CORTAR_NO": "4111710400",
      "CITY_LNG_NM": "경기도",
      "CITY_NM": "경기도",
      "DVSN_NM": "수원시 영통구",
      "COUPON_SEQ": null,
      "DISCOUNT_PRICE": null,
      "SEC_NM": "하동",
      "TAGS": "광교스튜디오,광교파티룸,광교호수뷰,수원렌탈스튜디오,수원파티룸",
      "SPCL_TAG_TP_CD": null,
      "REVW_CNT": 1,
      "workSpacePerPsYn": null,
      "odrNo": 0,
      "images": [
        "https://moplqfgeemqv2103108.cdn.ntruss.com/service/162271914_67909dcf5f6adca2cabc0eb15c2675ed.jpg?type=m&w=900&h=900&autorotate=true&quality=90",
        "https://moplqfgeemqv2103108.cdn.ntruss.com/service/162211110_043f8c43fde9bdbb3b5d5815f452d2e9.jpg?type=m&w=900&h=900&autorotate=true&quality=90",
        "https://moplqfgeemqv2103108.cdn.ntruss.com/service/162211109_c972188ceb51a56d303a6c3eaedbb8a2.jpg?type=m&w=900&h=900&autorotate=true&quality=90",
        "https://moplqfgeemqv2103108.cdn.ntruss.com/service/162271917_fa28dfc516d506a5b6fdcf86c7e37058.jpg?type=m&w=900&h=900&autorotate=true&quality=90",
        "https://moplqfgeemqv2103108.cdn.ntruss.com/service/162271916_43582c617991d8ec1b8e8eb389b07333.jpg?type=m&w=900&h=900&autorotate=true&quality=90",
        "https://moplqfgeemqv2103108.cdn.ntruss.com/service/162271915_02ca41ec95efd9b0306a805005e58325.jpg?type=m&w=900&h=900&autorotate=true&quality=90",
        "https://moplqfgeemqv2103108.cdn.ntruss.com/service/162211112_017e95a982e3a6ad9ad98d2425ca4097.jpg?type=m&w=900&h=900&autorotate=true&quality=90",
        "https://moplqfgeemqv2103108.cdn.ntruss.com/service/162211113_d55dec0db444a9a1a631816c0d1374d9.jpg?type=m&w=900&h=900&autorotate=true&quality=90"
      ]
    },
    {
      "spcSeq": 27304,
      "rsvMthCd": "FIXPY",
      "spcNm": "공유주방 마이키친 DMC 증산점",
      "rsvTpCd": "TIME",
      "zzimCnt": 87,
      "spcRepImgUrl": "https://moplqfgeemqv2103108.cdn.ntruss.com/service/159869753_b7d7cc5d767d1606d20bbc6cb56ca84a.jpg?type=m&w=900&h=900&autorotate=true&quality=90",
      "spcTpCd": "MEET",
      "minPrc": 10000,
      "maxPrc": 30000,
      "maxUser": 10,
      "lat": "37.5882081",
      "lng": "126.91264183",
      "CORTAR_NO": "1138011000",
      "CITY_LNG_NM": "서울특별시",
      "CITY_NM": "서울시",
      "DVSN_NM": "은평구",
      "COUPON_SEQ": null,
      "DISCOUNT_PRICE": null,
      "SEC_NM": "증산동",
      "TAGS": "공유주방,요리,주방대여,쿠킹스튜디오,파티룸",
      "SPCL_TAG_TP_CD": null,
      "REVW_CNT": 1,
      "workSpacePerPsYn": null,
      "odrNo": 0,
      "images": [
        "https://moplqfgeemqv2103108.cdn.ntruss.com/service/159869776_b7d7cc5d767d1606d20bbc6cb56ca84a.jpg?type=m&w=900&h=900&autorotate=true&quality=90",
        "https://moplqfgeemqv2103108.cdn.ntruss.com/service/159869776_28d29f4076432d458bc515eb32a3160a.jpg?type=m&w=900&h=900&autorotate=true&quality=90",
        "https://moplqfgeemqv2103108.cdn.ntruss.com/service/159869777_2cfa6d1023f579359cccf136fc8074d2.jpg?type=m&w=900&h=900&autorotate=true&quality=90",
        "https://moplqfgeemqv2103108.cdn.ntruss.com/service/159869786_de023ba1e7804bf8c1c8f45b29a47c66.jpg?type=m&w=900&h=900&autorotate=true&quality=90",
        "https://moplqfgeemqv2103108.cdn.ntruss.com/service/159869786_721f8f78e9a3c6a11b0efb5cb5787d19.jpg?type=m&w=900&h=900&autorotate=true&quality=90",
        "https://moplqfgeemqv2103108.cdn.ntruss.com/service/159869787_2af7f29e2418dda8b96704c5e7aaa441.jpg?type=m&w=900&h=900&autorotate=true&quality=90",
        "https://moplqfgeemqv2103108.cdn.ntruss.com/service/159869787_585ccce944f67229bc7d3946b16df06e.jpg?type=m&w=900&h=900&autorotate=true&quality=90"
      ]
    },
    {
      "spcSeq": 25793,
      "rsvMthCd": "FIXPY",
      "spcNm": "서울역 공유주방 플레이키친",
      "rsvTpCd": "PKG",
      "zzimCnt": 38,
      "spcRepImgUrl": "https://moplqfgeemqv2103108.cdn.ntruss.com/service/159471538_507a9b6777b449985bf917cf3a3671cf.JPG?type=m&w=900&h=900&autorotate=true&quality=90",
      "spcTpCd": "MEET",
      "minPrc": 120000,
      "maxPrc": 120000,
      "maxUser": 8,
      "lat": "37.5534461",
      "lng": "126.97669857",
      "CORTAR_NO": "1117010100",
      "CITY_LNG_NM": "서울특별시",
      "CITY_NM": "서울시",
      "DVSN_NM": "용산구",
      "COUPON_SEQ": null,
      "DISCOUNT_PRICE": null,
      "SEC_NM": "후암동",
      "TAGS": "공유거실,공유주방,서울역파티룸,이벤트,파티룸",
      "SPCL_TAG_TP_CD": null,
      "REVW_CNT": 1,
      "workSpacePerPsYn": null,
      "odrNo": 0,
      "images": [
        "https://moplqfgeemqv2103108.cdn.ntruss.com/service/159118959_8e3be986e9ed1d4cae10919679de6ea7.JPG?type=m&w=900&h=900&autorotate=true&quality=90",
        "https://moplqfgeemqv2103108.cdn.ntruss.com/service/159118960_b99d0a0a19515f010c856bd1c1ace0ca.JPG?type=m&w=900&h=900&autorotate=true&quality=90",
        "https://moplqfgeemqv2103108.cdn.ntruss.com/service/159118961_6f1664e9b4cb7df441059b001491d5d1.JPG?type=m&w=900&h=900&autorotate=true&quality=90",
        "https://moplqfgeemqv2103108.cdn.ntruss.com/service/159118963_c0f63a9b5014797e67d168dfdfd33296.JPG?type=m&w=900&h=900&autorotate=true&quality=90",
        "https://moplqfgeemqv2103108.cdn.ntruss.com/service/159118972_c6fee6f23a90d5d32fb00e4eb36a6ac7.JPG?type=m&w=900&h=900&autorotate=true&quality=90",
        "https://moplqfgeemqv2103108.cdn.ntruss.com/service/159118974_2b0575f609436b809ba62dd3134ac8be.JPG?type=m&w=900&h=900&autorotate=true&quality=90",
        "https://moplqfgeemqv2103108.cdn.ntruss.com/service/159118975_a4851ef1b99c306600ce5fb7f5a92778.JPG?type=m&w=900&h=900&autorotate=true&quality=90",
        "https://moplqfgeemqv2103108.cdn.ntruss.com/service/159471540_5911094a1821aceb366117f090b57b19.JPG?type=m&w=900&h=900&autorotate=true&quality=90",
        "https://moplqfgeemqv2103108.cdn.ntruss.com/service/159471541_d409bad7e23f7a44497167b968b8e1d0.jpg?type=m&w=900&h=900&autorotate=true&quality=90",
        "https://moplqfgeemqv2103108.cdn.ntruss.com/service/159471542_58e350ee971465f113f5f9dd8d1149bf.JPG?type=m&w=900&h=900&autorotate=true&quality=90"
      ]
    },
    {
      "spcSeq": 20444,
      "rsvMthCd": "FIXPY",
      "spcNm": "공유주방 마이키친 홍대상수점",
      "rsvTpCd": "PKG",
      "zzimCnt": 140,
      "spcRepImgUrl": "https://moplqfgeemqv2103108.cdn.ntruss.com/service/156166021_c6cce6b16ab0e38bb835e56bb93834fc.jpg?type=m&w=900&h=900&autorotate=true&quality=90",
      "spcTpCd": "MEET",
      "minPrc": 40000,
      "maxPrc": 60000,
      "maxUser": 10,
      "lat": "37.54862033",
      "lng": "126.92243353",
      "CORTAR_NO": "1144011500",
      "CITY_LNG_NM": "서울특별시",
      "CITY_NM": "서울시",
      "DVSN_NM": "마포구",
      "COUPON_SEQ": null,
      "DISCOUNT_PRICE": null,
      "SEC_NM": "상수동",
      "TAGS": "공유주방,요리,주방대여,쿠킹스튜디오,파티룸",
      "SPCL_TAG_TP_CD": null,
      "REVW_CNT": 1,
      "workSpacePerPsYn": null,
      "odrNo": 0,
      "images": [
        "https://moplqfgeemqv2103108.cdn.ntruss.com/service/156166022_da16f378494b8f6888f4f535475d4018.jpg?type=m&w=900&h=900&autorotate=true&quality=90",
        "https://moplqfgeemqv2103108.cdn.ntruss.com/service/156166022_2fcd27288c4a2d854dc2ff326c8f3515.jpg?type=m&w=900&h=900&autorotate=true&quality=90",
        "https://moplqfgeemqv2103108.cdn.ntruss.com/service/156166024_c6cce6b16ab0e38bb835e56bb93834fc.jpg?type=m&w=900&h=900&autorotate=true&quality=90",
        "https://moplqfgeemqv2103108.cdn.ntruss.com/service/156166024_fd2bcdfb8e1f6018dc7b5d2096b9663d.jpg?type=m&w=900&h=900&autorotate=true&quality=90",
        "https://moplqfgeemqv2103108.cdn.ntruss.com/service/156166025_5459aee7e3bb2142e97f0f2855d6d91d.jpg?type=m&w=900&h=900&autorotate=true&quality=90",
        "https://moplqfgeemqv2103108.cdn.ntruss.com/service/156166025_a8deace8320b1a9519459772b6d45b5c.jpg?type=m&w=900&h=900&autorotate=true&quality=90",
        "https://moplqfgeemqv2103108.cdn.ntruss.com/service/156309322_d75a860e2fe73cf831d71c587992f2b3.jpg?type=m&w=900&h=900&autorotate=true&quality=90",
        "https://moplqfgeemqv2103108.cdn.ntruss.com/service/156309323_b94b9b4110e5c7a784d7497aaa012180.jpg?type=m&w=900&h=900&autorotate=true&quality=90",
        "https://moplqfgeemqv2103108.cdn.ntruss.com/service/156309323_1a905fadba6e01cdf53e9c9dda67495e.jpg?type=m&w=900&h=900&autorotate=true&quality=90",
        "https://moplqfgeemqv2103108.cdn.ntruss.com/service/156309324_e8738749e68fea280cd3abd46a93d151.jpg?type=m&w=900&h=900&autorotate=true&quality=90"
      ]
    },
    {
      "spcSeq": 33535,
      "rsvMthCd": "FIXPY",
      "spcNm": "당산골 소셜키친",
      "rsvTpCd": "TIME",
      "zzimCnt": 14,
      "spcRepImgUrl": "https://moplqfgeemqv2103108.cdn.ntruss.com/service/162624707_0f47555d6914ee9ac643460790907e29.jpg?type=m&w=900&h=900&autorotate=true&quality=90",
      "spcTpCd": "MEET",
      "minPrc": 10000,
      "maxPrc": 10000,
      "maxUser": 4,
      "lat": "37.5225559",
      "lng": "126.898198",
      "CORTAR_NO": "1156011100",
      "CITY_LNG_NM": "서울특별시",
      "CITY_NM": "서울시",
      "DVSN_NM": "영등포구",
      "COUPON_SEQ": null,
      "DISCOUNT_PRICE": null,
      "SEC_NM": "당산동1가",
      "TAGS": "공유주방,당산공유주방,서울공유주방,영등포공유주방,영등포파티룸",
      "SPCL_TAG_TP_CD": null,
      "REVW_CNT": 0,
      "workSpacePerPsYn": null,
      "odrNo": 0,
      "images": [
        "https://moplqfgeemqv2103108.cdn.ntruss.com/service/162624679_f66ac67ed87d8bb494e850aa71e72309.jpg?type=m&w=900&h=900&autorotate=true&quality=90",
        "https://moplqfgeemqv2103108.cdn.ntruss.com/service/162624691_0f47555d6914ee9ac643460790907e29.jpg?type=m&w=900&h=900&autorotate=true&quality=90",
        "https://moplqfgeemqv2103108.cdn.ntruss.com/service/162624703_9493ac5218b1d227f6e92a15bcf073d4.jpg?type=m&w=900&h=900&autorotate=true&quality=90",
        "https://moplqfgeemqv2103108.cdn.ntruss.com/service/162624693_c87d9edd9196dbc665d5cb07fb0dfad3.jpg?type=m&w=900&h=900&autorotate=true&quality=90",
        "https://moplqfgeemqv2103108.cdn.ntruss.com/service/162624693_b2433f60e96ac19211b604f30dba8822.jpg?type=m&w=900&h=900&autorotate=true&quality=90",
        "https://moplqfgeemqv2103108.cdn.ntruss.com/service/162624694_7388bb514c4d9fe1a698795322b8d331.jpg?type=m&w=900&h=900&autorotate=true&quality=90",
        "https://moplqfgeemqv2103108.cdn.ntruss.com/service/162624694_567668d596cd108d91b9cc3d230b9f00.jpg?type=m&w=900&h=900&autorotate=true&quality=90"
      ]
    },
    {
      "spcSeq": 32458,
      "rsvMthCd": "FIXPY",
      "spcNm": "[일산 원흥] 오우하우 스튜디오",
      "rsvTpCd": "TIME",
      "zzimCnt": 16,
      "spcRepImgUrl": "https://moplqfgeemqv2103108.cdn.ntruss.com/service/162195344_d02258fecdd236126c7f168c4941fc89.jpg?type=m&w=900&h=900&autorotate=true&quality=90",
      "spcTpCd": "MEET",
      "minPrc": 9900,
      "maxPrc": 9900,
      "maxUser": 10,
      "lat": "37.65249061",
      "lng": "126.87359444",
      "CORTAR_NO": "4128110400",
      "CITY_LNG_NM": "경기도",
      "CITY_NM": "경기도",
      "DVSN_NM": "고양시 덕양구",
      "COUPON_SEQ": null,
      "DISCOUNT_PRICE": null,
      "SEC_NM": "원흥동",
      "TAGS": "공간대여,렌탈스튜디오,모임공간,일산파티룸,파티룸",
      "SPCL_TAG_TP_CD": null,
      "REVW_CNT": 0,
      "workSpacePerPsYn": null,
      "odrNo": 0,
      "images": [
        "https://moplqfgeemqv2103108.cdn.ntruss.com/service/162195356_1b8f13d6cea3a9f616e56a8051fa8dac.jpg?type=m&w=900&h=900&autorotate=true&quality=90",
        "https://moplqfgeemqv2103108.cdn.ntruss.com/service/162157400_4338e6a958f53a3e155bc8443a8ca9cc.jpg?type=m&w=900&h=900&autorotate=true&quality=90",
        "https://moplqfgeemqv2103108.cdn.ntruss.com/service/162157406_83b3985e3e23351d70aab7c59327e13c.jpg?type=m&w=900&h=900&autorotate=true&quality=90",
        "https://moplqfgeemqv2103108.cdn.ntruss.com/service/162157402_3682bc4bd6de34871ec2cd8c7490f376.jpg?type=m&w=900&h=900&autorotate=true&quality=90",
        "https://moplqfgeemqv2103108.cdn.ntruss.com/service/162157404_1d031930fab6f4e6a2531ed151af0eb5.jpg?type=m&w=900&h=900&autorotate=true&quality=90",
        "https://moplqfgeemqv2103108.cdn.ntruss.com/service/162157403_5ca3f9b37f0765a3629b95ff9de5a703.jpg?type=m&w=900&h=900&autorotate=true&quality=90",
        "https://moplqfgeemqv2103108.cdn.ntruss.com/service/162195376_9ac44c0bab386ee4770d488d75c98624.JPG?type=m&w=900&h=900&autorotate=true&quality=90",
        "https://moplqfgeemqv2103108.cdn.ntruss.com/service/162195359_baf05ba96cca907538796589e7822ec8.jpg?type=m&w=900&h=900&autorotate=true&quality=90",
        "https://moplqfgeemqv2103108.cdn.ntruss.com/service/162157406_f80eddb55b0b01e06ddccca5550097b5.jpg?type=m&w=900&h=900&autorotate=true&quality=90",
        "https://moplqfgeemqv2103108.cdn.ntruss.com/service/162190801_111e4def30abca57d3ff3d766954304a.jpg?type=m&w=900&h=900&autorotate=true&quality=90"
      ]
    },
    {
      "spcSeq": 27307,
      "rsvMthCd": "FIXPY",
      "spcNm": "소규모파티하기 좋은 비니밥",
      "rsvTpCd": "PKG",
      "zzimCnt": 68,
      "spcRepImgUrl": "https://moplqfgeemqv2103108.cdn.ntruss.com/service/159876782_6a5d13cdff945ab2ef5b88b1207ae9fd.jpeg?type=m&w=900&h=900&autorotate=true&quality=90",
      "spcTpCd": "MEET",
      "minPrc": 0,
      "maxPrc": 0,
      "maxUser": 5,
      "lat": "37.53257369",
      "lng": "127.0657222",
      "CORTAR_NO": "1121510500",
      "CITY_LNG_NM": "서울특별시",
      "CITY_NM": "서울시",
      "DVSN_NM": "광진구",
      "COUPON_SEQ": null,
      "DISCOUNT_PRICE": null,
      "SEC_NM": "자양동",
      "TAGS": "건대파티룸,광진구파티룸,브라이덜샤워,생일파티,연말파티",
      "SPCL_TAG_TP_CD": null,
      "REVW_CNT": 0,
      "workSpacePerPsYn": null,
      "odrNo": 0,
      "images": [
        "https://moplqfgeemqv2103108.cdn.ntruss.com/service/159876786_c7cec0641f2946356b503d33198f77d8.jpeg?type=m&w=900&h=900&autorotate=true&quality=90",
        "https://moplqfgeemqv2103108.cdn.ntruss.com/service/159876784_9bc8cd71c4b99e7560f0b46c97e0db3f.jpeg?type=m&w=900&h=900&autorotate=true&quality=90",
        "https://moplqfgeemqv2103108.cdn.ntruss.com/service/159876784_996f95e9042203b43f925e39514e8b4b.jpeg?type=m&w=900&h=900&autorotate=true&quality=90",
        "https://moplqfgeemqv2103108.cdn.ntruss.com/service/159876788_9a0db39f18ca24ae7ba9202c7d5e1132.jpeg?type=m&w=900&h=900&autorotate=true&quality=90"
      ]
    },
    {
      "spcSeq": 8826,
      "rsvMthCd": "FIXPY",
      "spcNm": "심플- 요리하는공간, 키친파티룸",
      "rsvTpCd": "TIME",
      "zzimCnt": 34,
      "spcRepImgUrl": "https://moplqfgeemqv2103108.cdn.ntruss.com/service/159659792_e920b581d2aa27918d1c1c509e886752.JPG?type=m&w=900&h=900&autorotate=true&quality=90",
      "spcTpCd": "MEET",
      "minPrc": 40000,
      "maxPrc": 40000,
      "maxUser": 15,
      "lat": "37.514618",
      "lng": "127.027245",
      "CORTAR_NO": "1168010800",
      "CITY_LNG_NM": "서울특별시",
      "CITY_NM": "서울시",
      "DVSN_NM": "강남구",
      "COUPON_SEQ": null,
      "DISCOUNT_PRICE": null,
      "SEC_NM": "논현동",
      "TAGS": "강남파티장소,레시피개발장소,영상촬영장소,키친대여,프로포즈장소",
      "SPCL_TAG_TP_CD": null,
      "REVW_CNT": 0,
      "workSpacePerPsYn": null,
      "odrNo": 0,
      "images": [
        "https://moplqfgeemqv2103108.cdn.ntruss.com/pstatic-scloud/pstatic/b10e8364-1cb9-4661-b49d-f8b6ba891c14.JPG?type=m&w=600&h=600&autorotate=true&quality=70",
        "https://moplqfgeemqv2103108.cdn.ntruss.com/pstatic-scloud/pstatic/df160f71-4cf7-408f-8dd4-9eb1f3230bf0.JPG?type=m&w=600&h=600&autorotate=true&quality=70",
        "https://moplqfgeemqv2103108.cdn.ntruss.com/pstatic-scloud/pstatic/768ec2e1-1b66-4602-a71b-59578d7e7bc6.JPG?type=m&w=600&h=600&autorotate=true&quality=70",
        "https://moplqfgeemqv2103108.cdn.ntruss.com/pstatic-scloud/pstatic/c9d24f55-53f0-4e69-9196-491bb023160d.JPG?type=m&w=600&h=600&autorotate=true&quality=70",
        "https://moplqfgeemqv2103108.cdn.ntruss.com/pstatic-scloud/pstatic/0b07f595-bf16-4c71-b4c2-8433474d8b4d.JPG?type=m&w=600&h=600&autorotate=true&quality=70",
        "https://moplqfgeemqv2103108.cdn.ntruss.com/pstatic-scloud/pstatic/918cae8b-9bfd-4c07-a0f5-9ddd9b2cd574.JPG?type=m&w=600&h=600&autorotate=true&quality=70",
        "https://moplqfgeemqv2103108.cdn.ntruss.com/pstatic-scloud/pstatic/b679d436-0b3f-4189-a561-f38ee52ee326.JPG?type=m&w=600&h=600&autorotate=true&quality=70",
        "https://moplqfgeemqv2103108.cdn.ntruss.com/service/159659798_b1dee9021a35bfdeeb159d481db4618c.jpg?type=m&w=900&h=900&autorotate=true&quality=90"
      ]
    },
    {
      "spcSeq": 31125,
      "rsvMthCd": "FIXPY",
      "spcNm": "노량진수산시장 옆  공유주방 ",
      "rsvTpCd": "TIME",
      "zzimCnt": 5,
      "spcRepImgUrl": "https://moplqfgeemqv2103108.cdn.ntruss.com/service/162461046_6e6db280f68b3ff249d62dd0a0ebc821.jpg?type=m&w=900&h=900&autorotate=true&quality=90",
      "spcTpCd": "MEET",
      "minPrc": 15000,
      "maxPrc": 15000,
      "maxUser": 4,
      "lat": "37.51431662",
      "lng": "126.93939331",
      "CORTAR_NO": "1159010100",
      "CITY_LNG_NM": "서울특별시",
      "CITY_NM": "서울시",
      "DVSN_NM": "동작구",
      "COUPON_SEQ": null,
      "DISCOUNT_PRICE": null,
      "SEC_NM": "노량진동",
      "TAGS": "공유주방,노랑진수산시장,노량진,노량진동,수산물반값구매",
      "SPCL_TAG_TP_CD": null,
      "REVW_CNT": 1,
      "workSpacePerPsYn": null,
      "odrNo": 0,
      "images": [
        "https://moplqfgeemqv2103108.cdn.ntruss.com/service/162461050_6e6db280f68b3ff249d62dd0a0ebc821.jpg?type=m&w=900&h=900&autorotate=true&quality=90",
        "https://moplqfgeemqv2103108.cdn.ntruss.com/service/162461050_0fe5cead57184735701e07d538a79b6b.jpg?type=m&w=900&h=900&autorotate=true&quality=90",
        "https://moplqfgeemqv2103108.cdn.ntruss.com/service/162461051_44ad97355237ba153967e1b8cdc83abe.jpg?type=m&w=900&h=900&autorotate=true&quality=90"
      ]
    },
    {
      "spcSeq": 33431,
      "rsvMthCd": "FIXPY",
      "spcNm": "그린히어로 소셜키친",
      "rsvTpCd": "TIME",
      "zzimCnt": 10,
      "spcRepImgUrl": "https://moplqfgeemqv2103108.cdn.ntruss.com/service/162606534_6d0e935cf030431dfc928378fa215888.jpg?type=m&w=900&h=900&autorotate=true&quality=90",
      "spcTpCd": "MEET",
      "minPrc": 10000,
      "maxPrc": 10000,
      "maxUser": 10,
      "lat": "37.52224069",
      "lng": "126.8991016",
      "CORTAR_NO": "1156011100",
      "CITY_LNG_NM": "서울특별시",
      "CITY_NM": "서울시",
      "DVSN_NM": "영등포구",
      "COUPON_SEQ": null,
      "DISCOUNT_PRICE": null,
      "SEC_NM": "당산동1가",
      "TAGS": "공유주방,서울공유주방,서울파티룸,영등포공유주방,파티룸",
      "SPCL_TAG_TP_CD": null,
      "REVW_CNT": 0,
      "workSpacePerPsYn": null,
      "odrNo": 0,
      "images": [
        "https://moplqfgeemqv2103108.cdn.ntruss.com/service/162606535_ca259c4969c276aebfc22b6839055422.jpg?type=m&w=900&h=900&autorotate=true&quality=90",
        "https://moplqfgeemqv2103108.cdn.ntruss.com/service/162581674_6d0e935cf030431dfc928378fa215888.jpg?type=m&w=900&h=900&autorotate=true&quality=90",
        "https://moplqfgeemqv2103108.cdn.ntruss.com/service/162581675_d9c7b9f4d253a27a3629fce4bdb87835.jpg?type=m&w=900&h=900&autorotate=true&quality=90",
        "https://moplqfgeemqv2103108.cdn.ntruss.com/service/162581676_b00c918f8ce7cec4a3a361b0c49dedac.jpg?type=m&w=900&h=900&autorotate=true&quality=90",
        "https://moplqfgeemqv2103108.cdn.ntruss.com/service/162581677_c6933ed194aae180cf8f9afafb99061f.jpg?type=m&w=900&h=900&autorotate=true&quality=90",
        "https://moplqfgeemqv2103108.cdn.ntruss.com/service/162581677_fc9d711f29feb2098271bfa9aa096fe4.jpg?type=m&w=900&h=900&autorotate=true&quality=90",
        "https://moplqfgeemqv2103108.cdn.ntruss.com/service/162581678_8636be0fc5436a51a0b5cb511c421469.jpg?type=m&w=900&h=900&autorotate=true&quality=90"
      ]
    },
    {
      "spcSeq": 33405,
      "rsvMthCd": "FIXPY",
      "spcNm": "오늘 우리의 이야기  대전점",
      "rsvTpCd": "PKG",
      "zzimCnt": 4,
      "spcRepImgUrl": "https://moplqfgeemqv2103108.cdn.ntruss.com/service/162573945_8f8d3d986ce0d328a89bf6da1001ab8b.JPG?type=m&w=900&h=900&autorotate=true&quality=90",
      "spcTpCd": "MEET",
      "minPrc": 55000,
      "maxPrc": 110000,
      "maxUser": 20,
      "lat": "36.3271841",
      "lng": "127.41820717",
      "CORTAR_NO": "3014010200",
      "CITY_LNG_NM": "대전광역시",
      "CITY_NM": "대전시",
      "DVSN_NM": "중구",
      "COUPON_SEQ": null,
      "DISCOUNT_PRICE": null,
      "SEC_NM": "선화동",
      "TAGS": "감성스튜디오,공간대여,대전모임장소,데이트,파티룸",
      "SPCL_TAG_TP_CD": null,
      "REVW_CNT": 0,
      "workSpacePerPsYn": null,
      "odrNo": 0,
      "images": [
        "https://moplqfgeemqv2103108.cdn.ntruss.com/service/162573948_14188b0015b1f6ffdd8295097ae9c731.JPG?type=m&w=900&h=900&autorotate=true&quality=90",
        "https://moplqfgeemqv2103108.cdn.ntruss.com/service/162573950_31ef7286e7423b494b121ec1298f7aca.JPG?type=m&w=900&h=900&autorotate=true&quality=90",
        "https://moplqfgeemqv2103108.cdn.ntruss.com/service/162573953_f95e120200f1efb2b3c54b2ea5af282a.JPG?type=m&w=900&h=900&autorotate=true&quality=90",
        "https://moplqfgeemqv2103108.cdn.ntruss.com/service/162573953_f076825ab56332b463a00afc689fd977.JPG?type=m&w=900&h=900&autorotate=true&quality=90",
        "https://moplqfgeemqv2103108.cdn.ntruss.com/service/162573954_5967b147fa655b29afb4e842044dbc84.JPG?type=m&w=900&h=900&autorotate=true&quality=90",
        "https://moplqfgeemqv2103108.cdn.ntruss.com/service/162573955_e2ddf2d838c7937f4a1f989afbb1ddd4.JPG?type=m&w=900&h=900&autorotate=true&quality=90",
        "https://moplqfgeemqv2103108.cdn.ntruss.com/service/162573956_9adc95fab7e26e4259fef372f09ed1fb.JPG?type=m&w=900&h=900&autorotate=true&quality=90",
        "https://moplqfgeemqv2103108.cdn.ntruss.com/service/162573957_a71f87fd999be8915604724a48d34428.JPG?type=m&w=900&h=900&autorotate=true&quality=90",
        "https://moplqfgeemqv2103108.cdn.ntruss.com/service/162573957_0b9e4b17d57db085e5165b250e425825.JPG?type=m&w=900&h=900&autorotate=true&quality=90"
      ]
    },
    {
      "spcSeq": 33302,
      "rsvMthCd": "FIXPY",
      "spcNm": "아르떼-복합문화공간",
      "rsvTpCd": "TIME",
      "zzimCnt": 3,
      "spcRepImgUrl": "https://moplqfgeemqv2103108.cdn.ntruss.com/service/162542719_12bd165a78cbdbdfdbfe85d006712601.jpg?type=m&w=900&h=900&autorotate=true&quality=90",
      "spcTpCd": "MEET",
      "minPrc": 30000,
      "maxPrc": 30000,
      "maxUser": 80,
      "lat": "37.54052228",
      "lng": "127.06577999",
      "CORTAR_NO": "1121510500",
      "CITY_LNG_NM": "서울특별시",
      "CITY_NM": "서울시",
      "DVSN_NM": "광진구",
      "COUPON_SEQ": null,
      "DISCOUNT_PRICE": null,
      "SEC_NM": "자양동",
      "TAGS": "#제품렌탈스튜디오,유튜브촬영,쿡방촬영,파티룸,회의실",
      "SPCL_TAG_TP_CD": null,
      "REVW_CNT": 0,
      "workSpacePerPsYn": null,
      "odrNo": 0,
      "images": [
        "https://moplqfgeemqv2103108.cdn.ntruss.com/service/162542721_ce1f5fcc9592a9870c231c31ff13ec01.jpg?type=m&w=900&h=900&autorotate=true&quality=90",
        "https://moplqfgeemqv2103108.cdn.ntruss.com/service/162542723_d0da56027b5cf0a626be69ae1e5849a7.jpg?type=m&w=900&h=900&autorotate=true&quality=90",
        "https://moplqfgeemqv2103108.cdn.ntruss.com/service/162542726_5023d54ec9cb5c843bde75e80fb64c0c.jpg?type=m&w=900&h=900&autorotate=true&quality=90",
        "https://moplqfgeemqv2103108.cdn.ntruss.com/service/162542727_cbccf845641bbc3ce20eec210b3f0e35.jpg?type=m&w=900&h=900&autorotate=true&quality=90",
        "https://moplqfgeemqv2103108.cdn.ntruss.com/service/162542728_58344b1acdf67406a1d8fadce7472bbb.jpg?type=m&w=900&h=900&autorotate=true&quality=90",
        "https://moplqfgeemqv2103108.cdn.ntruss.com/service/162542731_0fdbc71948482704b9284947859082f9.jpg?type=m&w=900&h=900&autorotate=true&quality=90",
        "https://moplqfgeemqv2103108.cdn.ntruss.com/service/162542732_a8e53ebfc1ae69b79b809d19b44256a5.jpg?type=m&w=900&h=900&autorotate=true&quality=90",
        "https://moplqfgeemqv2103108.cdn.ntruss.com/service/162542740_b817dca22cf1ac49fc02671a7d2465f2.jpg?type=m&w=900&h=900&autorotate=true&quality=90",
        "https://moplqfgeemqv2103108.cdn.ntruss.com/service/162542747_c1ea8f67cbef8f9f5d00799a7ae8a400.jpg?type=m&w=900&h=900&autorotate=true&quality=90",
        "https://moplqfgeemqv2103108.cdn.ntruss.com/service/162576643_3dbbec75eda96ef6b9e2f258f3ad7b2e.jpg?type=m&w=900&h=900&autorotate=true&quality=90"
      ]
    }
  ],
  "origin": "공유주방",
  "duplicated": false,
  "pageTitle": "공유주방"
}