{
  "tcnt": 65,
  "out_param": {
    "tBgramLen": 0,
    "AttendyMin": null,
    "cat": [
      "53"
    ],
    "strQttl": "",
    "qBgram": [],
    "qBgramLen": 0,
    "qPrecision": 0.8,
    "pageCount": 12,
    "notHasTtl": true,
    "filter": {
      "q": "공유주방",
      "page": "2",
      "tcnt": "65",
      "format": "json",
      "controller": "search",
      "action": "spaces",
      "order": "BEST_DESC"
    },
    "skipCount": 12
  },
  "searchParam": {
    "original_query": "공유주방",
    "refined_query": "공유주방 ",
    "typed_querys": [
      {
        "name": "공유주방",
        "type": "CATEGORY"
      }
    ],
    "localities": {
      "strategical_cortar_info": [],
      "city_cortar_info": [],
      "dvsn_cortar_info": [],
      "sec_cortar_info": []
    },
    "categories": [
      {
        "catSeq": 53,
        "catNm": "공유주방"
      }
    ],
    "terms": [],
    "title_terms": [],
    "from_main_search": false,
    "is_subway_search": false,
    "page_count": 12,
    "total_count": 65,
    "page": 2,
    "skip_count": 12,
    "check_coupon": false,
    "seperated_queries": [
      null
    ],
    "ttl_matched": ""
  },
  "filter": {
    "q": "공유주방",
    "page": "2",
    "tcnt": "65",
    "format": "json",
    "controller": "search",
    "action": "spaces",
    "order": "BEST_DESC"
  },
  "result": [
    {
      "spcSeq": 26761,
      "rsvMthCd": "NOWPY",
      "spcNm": "공간 SeeU-3",
      "rsvTpCd": "TIME",
      "zzimCnt": 50,
      "spcRepImgUrl": "https://moplqfgeemqv2103108.cdn.ntruss.com/service/159527078_6f8579fd9be7ffdbd21e9480776a7ebf.jpg?type=m&w=900&h=900&autorotate=true&quality=90",
      "spcTpCd": "MEET",
      "minPrc": 3500,
      "maxPrc": 3500,
      "maxUser": 5,
      "lat": "37.55254867",
      "lng": "126.92200757",
      "CORTAR_NO": "1144012000",
      "CITY_LNG_NM": "서울특별시",
      "CITY_NM": "서울시",
      "DVSN_NM": "마포구",
      "COUPON_SEQ": null,
      "DISCOUNT_PRICE": null,
      "SEC_NM": "서교동",
      "TAGS": "공동작업,모임장소,소모임,스터디룸,원데이클라스",
      "SPCL_TAG_TP_CD": null,
      "REVW_CNT": 0,
      "workSpacePerPsYn": null,
      "odrNo": 0,
      "images": [
        "https://moplqfgeemqv2103108.cdn.ntruss.com/service/159527080_6f8579fd9be7ffdbd21e9480776a7ebf.jpg?type=m&w=900&h=900&autorotate=true&quality=90",
        "https://moplqfgeemqv2103108.cdn.ntruss.com/service/159527080_94407d9168761b4a41cc1214a54001fe.jpg?type=m&w=900&h=900&autorotate=true&quality=90",
        "https://moplqfgeemqv2103108.cdn.ntruss.com/service/159527081_d77c9e638fcc7d60cc5a7f4613bc9b2e.jpg?type=m&w=900&h=900&autorotate=true&quality=90",
        "https://moplqfgeemqv2103108.cdn.ntruss.com/service/159527082_024eeb62e78c75b04c751287e9ac705b.jpg?type=m&w=900&h=900&autorotate=true&quality=90"
      ]
    },
    {
      "spcSeq": 30553,
      "rsvMthCd": "FIXPY",
      "spcNm": "광흥창 공유주방 스튜디오 하루",
      "rsvTpCd": "TIME",
      "zzimCnt": 58,
      "spcRepImgUrl": "https://moplqfgeemqv2103108.cdn.ntruss.com/service/162209713_90a40970242054aa87604a3595968b12.jpeg?type=m&w=900&h=900&autorotate=true&quality=90",
      "spcTpCd": "MEET",
      "minPrc": 2500,
      "maxPrc": 22000,
      "maxUser": 20,
      "lat": "37.54686443",
      "lng": "126.93265023",
      "CORTAR_NO": "1144011300",
      "CITY_LNG_NM": "서울특별시",
      "CITY_NM": "서울시",
      "DVSN_NM": "마포구",
      "COUPON_SEQ": null,
      "DISCOUNT_PRICE": null,
      "SEC_NM": "구수동",
      "TAGS": "공간대여,공유주방,단체모임,촬영,파티룸",
      "SPCL_TAG_TP_CD": null,
      "REVW_CNT": 8,
      "workSpacePerPsYn": null,
      "odrNo": 0,
      "images": [
        "https://moplqfgeemqv2103108.cdn.ntruss.com/service/161228264_6b3f414fed2668389f3f592552aac438.jpg?type=m&w=900&h=900&autorotate=true&quality=90",
        "https://moplqfgeemqv2103108.cdn.ntruss.com/service/161228264_a6f7fe404094ecdec80f5b586e52511f.jpg?type=m&w=900&h=900&autorotate=true&quality=90",
        "https://moplqfgeemqv2103108.cdn.ntruss.com/service/161228267_c8e02528ab26bef06a3478ffc24e1b6f.jpg?type=m&w=900&h=900&autorotate=true&quality=90",
        "https://moplqfgeemqv2103108.cdn.ntruss.com/service/162209724_4339e223f2ba1db26931ce8622f32338.jpeg?type=m&w=900&h=900&autorotate=true&quality=90",
        "https://moplqfgeemqv2103108.cdn.ntruss.com/service/161228267_409363fb60fa91fe25397c1f585fccb6.jpg?type=m&w=900&h=900&autorotate=true&quality=90",
        "https://moplqfgeemqv2103108.cdn.ntruss.com/service/162209738_e8742019ffbb49d31cced8b5b92004f8.jpeg?type=m&w=900&h=900&autorotate=true&quality=90",
        "https://moplqfgeemqv2103108.cdn.ntruss.com/service/161228271_2e4a887a0125cc24e2258f9624cb7140.jpg?type=m&w=900&h=900&autorotate=true&quality=90",
        "https://moplqfgeemqv2103108.cdn.ntruss.com/service/161228269_07cbbafa73cf882404167463d2f93d07.jpg?type=m&w=900&h=900&autorotate=true&quality=90",
        "https://moplqfgeemqv2103108.cdn.ntruss.com/service/161228269_21ad21a09473e4724238056811d7f08e.jpg?type=m&w=900&h=900&autorotate=true&quality=90",
        "https://moplqfgeemqv2103108.cdn.ntruss.com/service/161228270_66a2407919e1a6e2181973e7924d595e.jpg?type=m&w=900&h=900&autorotate=true&quality=90"
      ]
    },
    {
      "spcSeq": 31547,
      "rsvMthCd": "NOWPY",
      "spcNm": "청주파티룸 브로이[노래방 70평]",
      "rsvTpCd": "PKG",
      "zzimCnt": 2,
      "spcRepImgUrl": "https://moplqfgeemqv2103108.cdn.ntruss.com/service/161702281_6f19a472d72ff7084f4abd003220524b.jpg?type=m&w=900&h=900&autorotate=true&quality=90",
      "spcTpCd": "MEET",
      "minPrc": 70000,
      "maxPrc": 120000,
      "maxUser": 60,
      "lat": "36.71582414",
      "lng": "127.42777374",
      "CORTAR_NO": "4311425345",
      "CITY_LNG_NM": "충청북도",
      "CITY_NM": "충청북도",
      "DVSN_NM": "청주시 청원구",
      "COUPON_SEQ": null,
      "DISCOUNT_PRICE": null,
      "SEC_NM": "양청리",
      "TAGS": "단체대관,생일파티,쏘플파티룸,올나잇파티룸,청주파티룸",
      "SPCL_TAG_TP_CD": null,
      "REVW_CNT": 0,
      "workSpacePerPsYn": null,
      "odrNo": 0,
      "images": [
        "https://moplqfgeemqv2103108.cdn.ntruss.com/service/161702282_ff7939ff77c3cdf21c8fe667d15e185b.jpg?type=m&w=900&h=900&autorotate=true&quality=90",
        "https://moplqfgeemqv2103108.cdn.ntruss.com/service/161702282_4b0f7f43a2aa0e0c9bcd94418e260c38.jpg?type=m&w=900&h=900&autorotate=true&quality=90",
        "https://moplqfgeemqv2103108.cdn.ntruss.com/service/161702283_2fed34b084867432c049176e38131a96.jpg?type=m&w=900&h=900&autorotate=true&quality=90",
        "https://moplqfgeemqv2103108.cdn.ntruss.com/service/161702283_45c8fd8eb9a70a34ec95bd9392afb982.jpg?type=m&w=900&h=900&autorotate=true&quality=90",
        "https://moplqfgeemqv2103108.cdn.ntruss.com/service/161702284_0996aa8cee13b666aa0e025f5fa1e6b5.jpg?type=m&w=900&h=900&autorotate=true&quality=90",
        "https://moplqfgeemqv2103108.cdn.ntruss.com/service/161702284_52c63c5eac186b1d10691c2d207157c6.jpg?type=m&w=900&h=900&autorotate=true&quality=90",
        "https://moplqfgeemqv2103108.cdn.ntruss.com/service/161702285_77fde91cdb15742590e14434769a7ba2.jpg?type=m&w=900&h=900&autorotate=true&quality=90",
        "https://moplqfgeemqv2103108.cdn.ntruss.com/service/161702285_235d17a7d9edcec57796d78dec8af8cf.jpg?type=m&w=900&h=900&autorotate=true&quality=90",
        "https://moplqfgeemqv2103108.cdn.ntruss.com/service/161702286_626d2048fef79643ca2ebb75e1c16462.jpg?type=m&w=900&h=900&autorotate=true&quality=90",
        "https://moplqfgeemqv2103108.cdn.ntruss.com/service/161702286_7c9b849c8d737e2905dbaa1dab674d77.jpg?type=m&w=900&h=900&autorotate=true&quality=90"
      ]
    },
    {
      "spcSeq": 31279,
      "rsvMthCd": "FIXPY",
      "spcNm": "공유주방 [부엌 정백헌]",
      "rsvTpCd": "TIME",
      "zzimCnt": 36,
      "spcRepImgUrl": "https://moplqfgeemqv2103108.cdn.ntruss.com/service/161639570_738197d1b3080a20c271100975cf1be6.jpg?type=m&w=900&h=900&autorotate=true&quality=90",
      "spcTpCd": "MEET",
      "minPrc": 12000,
      "maxPrc": 12000,
      "maxUser": 6,
      "lat": "37.52008815",
      "lng": "126.84376627",
      "CORTAR_NO": "1147010300",
      "CITY_LNG_NM": "서울특별시",
      "CITY_NM": "서울시",
      "DVSN_NM": "양천구",
      "COUPON_SEQ": null,
      "DISCOUNT_PRICE": null,
      "SEC_NM": "신월동",
      "TAGS": "공유주방,대관,서울공유주방,스튜디오,프라이빗룸",
      "SPCL_TAG_TP_CD": null,
      "REVW_CNT": 4,
      "workSpacePerPsYn": null,
      "odrNo": 0,
      "images": [
        "https://moplqfgeemqv2103108.cdn.ntruss.com/service/161875615_5265486d73fe2ac80f109dcd95c7b2a3.jpg?type=m&w=900&h=900&autorotate=true&quality=90",
        "https://moplqfgeemqv2103108.cdn.ntruss.com/service/162253035_fccf512c7b33901e9806c85315d30ba5.jpg?type=m&w=900&h=900&autorotate=true&quality=90",
        "https://moplqfgeemqv2103108.cdn.ntruss.com/service/162253036_a6eebd1578a90c803d1fda7e1e54947f.jpg?type=m&w=900&h=900&autorotate=true&quality=90",
        "https://moplqfgeemqv2103108.cdn.ntruss.com/service/161849863_e0ded080d3e3ab5e73d461c3ff993664.JPG?type=m&w=900&h=900&autorotate=true&quality=90",
        "https://moplqfgeemqv2103108.cdn.ntruss.com/service/161979680_81e933f30628d3aa97f007720e19075c.jpg?type=m&w=900&h=900&autorotate=true&quality=90",
        "https://moplqfgeemqv2103108.cdn.ntruss.com/service/161849856_fe7f621aa67c17570f0ac1d1d3cf12a6.JPG?type=m&w=900&h=900&autorotate=true&quality=90"
      ]
    },
    {
      "spcSeq": 33283,
      "rsvMthCd": "FIXPY",
      "spcNm": "신대방삼거리역 그린플레이스",
      "rsvTpCd": "TIME",
      "zzimCnt": 21,
      "spcRepImgUrl": "https://moplqfgeemqv2103108.cdn.ntruss.com/service/162522912_ab19fb481c01d09dc11133bdffb623c8.jpg?type=m&w=900&h=900&autorotate=true&quality=90",
      "spcTpCd": "MEET",
      "minPrc": 13000,
      "maxPrc": 13000,
      "maxUser": 6,
      "lat": "37.50036377",
      "lng": "126.92671226",
      "CORTAR_NO": "1159010800",
      "CITY_LNG_NM": "서울특별시",
      "CITY_NM": "서울시",
      "DVSN_NM": "동작구",
      "COUPON_SEQ": null,
      "DISCOUNT_PRICE": null,
      "SEC_NM": "대방동",
      "TAGS": "공간대여,공유부엌,공유주방,키친스튜디오,프로포즈",
      "SPCL_TAG_TP_CD": null,
      "REVW_CNT": 1,
      "workSpacePerPsYn": null,
      "odrNo": 0,
      "images": [
        "https://moplqfgeemqv2103108.cdn.ntruss.com/service/162522926_fdef69bb0ab62f7d871c3226a82138f6.jpg?type=m&w=900&h=900&autorotate=true&quality=90",
        "https://moplqfgeemqv2103108.cdn.ntruss.com/service/162522916_4c3be61c7c5d15174a09be3e36007deb.jpg?type=m&w=900&h=900&autorotate=true&quality=90",
        "https://moplqfgeemqv2103108.cdn.ntruss.com/service/162522936_b384575065940cf97def3bd5e596ac52.jpg?type=m&w=900&h=900&autorotate=true&quality=90",
        "https://moplqfgeemqv2103108.cdn.ntruss.com/service/162522944_0d1d2923a9c987fe14e4d1ed5568c182.jpg?type=m&w=900&h=900&autorotate=true&quality=90",
        "https://moplqfgeemqv2103108.cdn.ntruss.com/service/162522949_af16a918e4be04c90b0e160c356b8b84.jpg?type=m&w=900&h=900&autorotate=true&quality=90",
        "https://moplqfgeemqv2103108.cdn.ntruss.com/service/162522954_048908c82867825226dc6d08f4ce21ec.jpg?type=m&w=900&h=900&autorotate=true&quality=90",
        "https://moplqfgeemqv2103108.cdn.ntruss.com/service/162522951_194fe3f423871221ed4d6995c459aceb.jpg?type=m&w=900&h=900&autorotate=true&quality=90",
        "https://moplqfgeemqv2103108.cdn.ntruss.com/service/162522956_2c5a644c8ffeb3333ae022fa74b462bf.jpg?type=m&w=900&h=900&autorotate=true&quality=90",
        "https://moplqfgeemqv2103108.cdn.ntruss.com/service/162522959_5fa6fe8c788add242d5f68c9e9c21b23.jpg?type=m&w=900&h=900&autorotate=true&quality=90",
        "https://moplqfgeemqv2103108.cdn.ntruss.com/service/162522960_66bea73241da80a6d5833fba0992ce3a.jpg?type=m&w=900&h=900&autorotate=true&quality=90"
      ]
    },
    {
      "spcSeq": 31477,
      "rsvMthCd": "NOWPY",
      "spcNm": "전주 나무정원",
      "rsvTpCd": "TIME",
      "zzimCnt": 0,
      "spcRepImgUrl": "https://moplqfgeemqv2103108.cdn.ntruss.com/service/161845007_b92e0dea2482e137226903af073ff1cb.jpg?type=m&w=900&h=900&autorotate=true&quality=90",
      "spcTpCd": "MEET",
      "minPrc": 20000,
      "maxPrc": 20000,
      "maxUser": 4,
      "lat": "35.82290652",
      "lng": "127.15496386",
      "CORTAR_NO": "4511112000",
      "CITY_LNG_NM": "전라북도",
      "CITY_NM": "전라북도",
      "DVSN_NM": "전주시 완산구",
      "COUPON_SEQ": null,
      "DISCOUNT_PRICE": null,
      "SEC_NM": "중노송동",
      "TAGS": "공유주방,빔프로젝터,스튜디오,장소대여,파티룸",
      "SPCL_TAG_TP_CD": null,
      "REVW_CNT": 0,
      "workSpacePerPsYn": null,
      "odrNo": 0,
      "images": [
        "https://moplqfgeemqv2103108.cdn.ntruss.com/service/161844881_e592b5ab4a4816c0232b881aa389cde0.jpg?type=m&w=900&h=900&autorotate=true&quality=90",
        "https://moplqfgeemqv2103108.cdn.ntruss.com/service/161844927_30af768c1e3e7a6e9caf66011f0ac6a5.jpg?type=m&w=900&h=900&autorotate=true&quality=90",
        "https://moplqfgeemqv2103108.cdn.ntruss.com/service/161844927_0654adc6f21ced90cd2e60e1db793b6f.jpg?type=m&w=900&h=900&autorotate=true&quality=90",
        "https://moplqfgeemqv2103108.cdn.ntruss.com/service/161844928_6325bceb5bd7304e26294fc866c6e16c.jpg?type=m&w=900&h=900&autorotate=true&quality=90",
        "https://moplqfgeemqv2103108.cdn.ntruss.com/service/161844929_6d41416ac52e1c09bea1d4acffcfdcef.jpg?type=m&w=900&h=900&autorotate=true&quality=90",
        "https://moplqfgeemqv2103108.cdn.ntruss.com/service/161844931_42163b15b7479b0400ae65115ad643b8.jpg?type=m&w=900&h=900&autorotate=true&quality=90",
        "https://moplqfgeemqv2103108.cdn.ntruss.com/service/161844932_d23ef03709116e53cf53b2779d93a65a.jpg?type=m&w=900&h=900&autorotate=true&quality=90",
        "https://moplqfgeemqv2103108.cdn.ntruss.com/service/161844934_e6ffbaef2649ac097d4e607a2dab6f99.jpg?type=m&w=900&h=900&autorotate=true&quality=90",
        "https://moplqfgeemqv2103108.cdn.ntruss.com/service/161844995_2984036d9f93eb5b83c1eea4c7dc3003.jpg?type=m&w=900&h=900&autorotate=true&quality=90",
        "https://moplqfgeemqv2103108.cdn.ntruss.com/service/161845016_e383a486c920364d3792ec37529f9e48.jpg?type=m&w=900&h=900&autorotate=true&quality=90"
      ]
    },
    {
      "spcSeq": 32971,
      "rsvMthCd": "FIXPY",
      "spcNm": "신나는동네,정릉(공유부엌)",
      "rsvTpCd": "TIME",
      "zzimCnt": 26,
      "spcRepImgUrl": "https://moplqfgeemqv2103108.cdn.ntruss.com/service/162367678_9b78d60a02a9fc57efbc5cf5018ff6f2.jpg?type=m&w=900&h=900&autorotate=true&quality=90",
      "spcTpCd": "MEET",
      "minPrc": 10000,
      "maxPrc": 10000,
      "maxUser": 5,
      "lat": "37.60264946",
      "lng": "127.01282441",
      "CORTAR_NO": "1129013300",
      "CITY_LNG_NM": "서울특별시",
      "CITY_NM": "서울시",
      "DVSN_NM": "성북구",
      "COUPON_SEQ": null,
      "DISCOUNT_PRICE": null,
      "SEC_NM": "정릉동",
      "TAGS": "공유부엌,다락,모임,정릉동,정릉역",
      "SPCL_TAG_TP_CD": null,
      "REVW_CNT": 1,
      "workSpacePerPsYn": null,
      "odrNo": 0,
      "images": [
        "https://moplqfgeemqv2103108.cdn.ntruss.com/service/162367700_8c43e57b2e553558f0f5f83486ff0bae.jpg?type=m&w=900&h=900&autorotate=true&quality=90",
        "https://moplqfgeemqv2103108.cdn.ntruss.com/service/162367702_0d5b1c4c7f720f698946c7f6ab08f687.jpg?type=m&w=900&h=900&autorotate=true&quality=90",
        "https://moplqfgeemqv2103108.cdn.ntruss.com/service/162367706_f17600b76ef4d8e9f40f7adf84e95f19.jpg?type=m&w=900&h=900&autorotate=true&quality=90",
        "https://moplqfgeemqv2103108.cdn.ntruss.com/service/162367719_fb9c6f06ee77b323dcb030b863f72c5a.jpg?type=m&w=900&h=900&autorotate=true&quality=90",
        "https://moplqfgeemqv2103108.cdn.ntruss.com/service/162367721_25c0bbe05158c073f26abc4dfac6637e.jpg?type=m&w=900&h=900&autorotate=true&quality=90"
      ]
    },
    {
      "spcSeq": 15341,
      "rsvMthCd": "FIXPY",
      "spcNm": "공유주방 마이키친 반포점",
      "rsvTpCd": "TIME",
      "zzimCnt": 318,
      "spcRepImgUrl": "https://moplqfgeemqv2103108.cdn.ntruss.com/pstatic-scloud/20181004_41/1538665047800Umck8_JPEG/%2525B3%2525ED%2525C7%2525F6%2525C1%2525D6%2525B9%2525E6_%2525B7%2525EB1_%2525282%252529.JPG?type=m&w=600&h=600&autorotate=true&quality=70",
      "spcTpCd": "MEET",
      "minPrc": 15000,
      "maxPrc": 20000,
      "maxUser": 6,
      "lat": "37.50597",
      "lng": "127.02076",
      "CORTAR_NO": "1165010700",
      "CITY_LNG_NM": "서울특별시",
      "CITY_NM": "서울시",
      "DVSN_NM": "서초구",
      "COUPON_SEQ": null,
      "DISCOUNT_PRICE": null,
      "SEC_NM": "반포동",
      "TAGS": "공유주방,대여주방,요리,주방,쿠킹스튜디오",
      "SPCL_TAG_TP_CD": null,
      "REVW_CNT": 12,
      "workSpacePerPsYn": null,
      "odrNo": 0,
      "images": [
        "https://moplqfgeemqv2103108.cdn.ntruss.com/pstatic-scloud/20181004_142/1538665055695r0GR2_JPEG/%2525B3%2525ED%2525C7%2525F6%2525C1%2525D6%2525B9%2525E6_%2525B7%2525EB1_%2525281%252529.JPG?type=m&w=600&h=600&autorotate=true&quality=70",
        "https://moplqfgeemqv2103108.cdn.ntruss.com/pstatic-scloud/20181004_105/15386650637918bpEp_JPEG/%2525B3%2525ED%2525C7%2525F6%2525C1%2525D6%2525B9%2525E6_%2525B7%2525EB1_%2525285%252529.JPG?type=m&w=600&h=600&autorotate=true&quality=70",
        "https://moplqfgeemqv2103108.cdn.ntruss.com/pstatic-scloud/20181004_285/1538665073270rAANy_JPEG/%2525B3%2525ED%2525C7%2525F6%2525C1%2525D6%2525B9%2525E6_%2525B7%2525EB1_%2525284%252529.JPG?type=m&w=600&h=600&autorotate=true&quality=70",
        "https://moplqfgeemqv2103108.cdn.ntruss.com/pstatic-scloud/20181004_27/1538665080900Jd4jk_JPEG/%2525B3%2525ED%2525C7%2525F6%2525C1%2525D6%2525B9%2525E6_%2525B7%2525EB1_%2525288%252529.JPG?type=m&w=600&h=600&autorotate=true&quality=70",
        "https://moplqfgeemqv2103108.cdn.ntruss.com/pstatic-scloud/20181004_147/1538665088193Ie1in_JPEG/%2525B3%2525ED%2525C7%2525F6%2525C1%2525D6%2525B9%2525E6_%2525B7%2525EB1_%2525287%252529.JPG?type=m&w=600&h=600&autorotate=true&quality=70",
        "https://moplqfgeemqv2103108.cdn.ntruss.com/service/161677319_3343701eead831062e8be197e6092dc3.jpg?type=m&w=900&h=900&autorotate=true&quality=90",
        "https://moplqfgeemqv2103108.cdn.ntruss.com/service/161677320_bce3929a98038b367f95675cb9ae76bf.jpg?type=m&w=900&h=900&autorotate=true&quality=90",
        "https://moplqfgeemqv2103108.cdn.ntruss.com/service/161677320_855ef81724b1388d209e10ffc0bcdb3e.jpg?type=m&w=900&h=900&autorotate=true&quality=90",
        "https://moplqfgeemqv2103108.cdn.ntruss.com/service/161677320_ea85d884b86b0d8c0c9450aa1c5ff1f1.jpg?type=m&w=900&h=900&autorotate=true&quality=90",
        "https://moplqfgeemqv2103108.cdn.ntruss.com/service/161677321_e7c80ef8febc25183a0eb937dbde02f5.jpg?type=m&w=900&h=900&autorotate=true&quality=90"
      ]
    },
    {
      "spcSeq": 32163,
      "rsvMthCd": "FIXPY",
      "spcNm": "[파티룸.공유주방] 강남 테이스티",
      "rsvTpCd": "TIME",
      "zzimCnt": 66,
      "spcRepImgUrl": "https://moplqfgeemqv2103108.cdn.ntruss.com/service/162005379_6cc27317cf5a80c856cb5f5913a2b24f.jpg?type=m&w=900&h=900&autorotate=true&quality=90",
      "spcTpCd": "MEET",
      "minPrc": 15000,
      "maxPrc": 15000,
      "maxUser": 20,
      "lat": "37.47481149",
      "lng": "127.04469463",
      "CORTAR_NO": "1165010200",
      "CITY_LNG_NM": "서울특별시",
      "CITY_NM": "서울시",
      "DVSN_NM": "서초구",
      "COUPON_SEQ": null,
      "DISCOUNT_PRICE": null,
      "SEC_NM": "양재동",
      "TAGS": "공유주방,스튜디오,유튜브,이벤트,파티룸",
      "SPCL_TAG_TP_CD": null,
      "REVW_CNT": 2,
      "workSpacePerPsYn": null,
      "odrNo": 0,
      "images": [
        "https://moplqfgeemqv2103108.cdn.ntruss.com/service/162005379_156005c5baf40ff51a327f1c34f2975b.jpg?type=m&w=900&h=900&autorotate=true&quality=90",
        "https://moplqfgeemqv2103108.cdn.ntruss.com/service/162005379_799bad5a3b514f096e69bbc4a7896cd9.jpg?type=m&w=900&h=900&autorotate=true&quality=90",
        "https://moplqfgeemqv2103108.cdn.ntruss.com/service/162005380_d0096ec6c83575373e3a21d129ff8fef.jpg?type=m&w=900&h=900&autorotate=true&quality=90",
        "https://moplqfgeemqv2103108.cdn.ntruss.com/service/162005380_032b2cc936860b03048302d991c3498f.jpg?type=m&w=900&h=900&autorotate=true&quality=90",
        "https://moplqfgeemqv2103108.cdn.ntruss.com/service/162735451_e591a7d517b649d8c5ab7a0a1325ad6c.jpeg?type=m&w=900&h=900&autorotate=true&quality=90",
        "https://moplqfgeemqv2103108.cdn.ntruss.com/service/162005381_fe5df232cafa4c4e0f1a0294418e5660.jpg?type=m&w=900&h=900&autorotate=true&quality=90",
        "https://moplqfgeemqv2103108.cdn.ntruss.com/service/162005381_8cda81fc7ad906927144235dda5fdf15.jpg?type=m&w=900&h=900&autorotate=true&quality=90",
        "https://moplqfgeemqv2103108.cdn.ntruss.com/service/162005381_30e62fddc14c05988b44e7c02788e187.jpg?type=m&w=900&h=900&autorotate=true&quality=90"
      ]
    },
    {
      "spcSeq": 28117,
      "rsvMthCd": "FIXPY",
      "spcNm": "알트탭 2층 전체대관(모임용도)",
      "rsvTpCd": "TIME",
      "zzimCnt": 119,
      "spcRepImgUrl": "https://moplqfgeemqv2103108.cdn.ntruss.com/service/162607801_138b2d6c89f7bdb086e4fe7e3e1e8aa7.jpg?type=m&w=900&h=900&autorotate=true&quality=90",
      "spcTpCd": "MEET",
      "minPrc": 30000,
      "maxPrc": 30000,
      "maxUser": 4,
      "lat": "37.5066818",
      "lng": "127.04931848",
      "CORTAR_NO": "1168010500",
      "CITY_LNG_NM": "서울특별시",
      "CITY_NM": "서울시",
      "DVSN_NM": "강남구",
      "COUPON_SEQ": null,
      "DISCOUNT_PRICE": null,
      "SEC_NM": "삼성동",
      "TAGS": "브라이덜샤워,생일파티,영화감상,이벤트,프로포즈",
      "SPCL_TAG_TP_CD": null,
      "REVW_CNT": 2,
      "workSpacePerPsYn": null,
      "odrNo": 0,
      "images": [
        "https://moplqfgeemqv2103108.cdn.ntruss.com/service/162607770_bbdb26b2e4605a9db7d12303868d4098.jpg?type=m&w=900&h=900&autorotate=true&quality=90",
        "https://moplqfgeemqv2103108.cdn.ntruss.com/service/162607778_a2788884ea965f2f736138ea7dd6eb08.jpg?type=m&w=900&h=900&autorotate=true&quality=90",
        "https://moplqfgeemqv2103108.cdn.ntruss.com/service/162607773_cbb6ae597c102b761cf9c764821ba484.jpg?type=m&w=900&h=900&autorotate=true&quality=90",
        "https://moplqfgeemqv2103108.cdn.ntruss.com/service/162607773_9c2315606064dc9546b063edc0f294f9.jpg?type=m&w=900&h=900&autorotate=true&quality=90",
        "https://moplqfgeemqv2103108.cdn.ntruss.com/service/162607773_d18ecd5967d4d346081af399276431f0.jpg?type=m&w=900&h=900&autorotate=true&quality=90",
        "https://moplqfgeemqv2103108.cdn.ntruss.com/service/162607774_f480bc2d94fe48b97795682be1fe23a2.jpg?type=m&w=900&h=900&autorotate=true&quality=90",
        "https://moplqfgeemqv2103108.cdn.ntruss.com/service/162210374_71d5ad5b6783d955468bf44ab0542c26.jpg?type=m&w=900&h=900&autorotate=true&quality=90",
        "https://moplqfgeemqv2103108.cdn.ntruss.com/service/162210383_e63fb99fb32b2bc7257ac394387cfb7d.jpg?type=m&w=900&h=900&autorotate=true&quality=90",
        "https://moplqfgeemqv2103108.cdn.ntruss.com/service/162210205_b205ad32107bbb8546e79bc3fc3409ac.jpg?type=m&w=900&h=900&autorotate=true&quality=90"
      ]
    },
    {
      "spcSeq": 31511,
      "rsvMthCd": "FIXPY",
      "spcNm": "공유주방 마이키친 논현역점",
      "rsvTpCd": "TIME",
      "zzimCnt": 17,
      "spcRepImgUrl": "https://moplqfgeemqv2103108.cdn.ntruss.com/service/161677387_7cd60b85eb5f2537c6b76700cc452d1a.jpg?type=m&w=900&h=900&autorotate=true&quality=90",
      "spcTpCd": "MEET",
      "minPrc": 15000,
      "maxPrc": 30000,
      "maxUser": 12,
      "lat": "37.51041168",
      "lng": "127.02501403",
      "CORTAR_NO": "1168010800",
      "CITY_LNG_NM": "서울특별시",
      "CITY_NM": "서울시",
      "DVSN_NM": "강남구",
      "COUPON_SEQ": null,
      "DISCOUNT_PRICE": null,
      "SEC_NM": "논현동",
      "TAGS": "공간대여,공유주방,논현주방,쿠킹스튜디오,파티룸",
      "SPCL_TAG_TP_CD": null,
      "REVW_CNT": 0,
      "workSpacePerPsYn": null,
      "odrNo": 0,
      "images": [
        "https://moplqfgeemqv2103108.cdn.ntruss.com/service/161677388_9d23dc153f54432a7b5cad90f9e16e8b.jpg?type=m&w=900&h=900&autorotate=true&quality=90",
        "https://moplqfgeemqv2103108.cdn.ntruss.com/service/161677389_c5a79510465152949715de4aaeb6eae7.jpg?type=m&w=900&h=900&autorotate=true&quality=90",
        "https://moplqfgeemqv2103108.cdn.ntruss.com/service/161677390_46a83e118e1764e5c729f8ef8772126d.jpg?type=m&w=900&h=900&autorotate=true&quality=90"
      ]
    },
    {
      "spcSeq": 31177,
      "rsvMthCd": "FIXPY",
      "spcNm": "수원 광교 공유주방 인더키친",
      "rsvTpCd": "PKG",
      "zzimCnt": 21,
      "spcRepImgUrl": "https://moplqfgeemqv2103108.cdn.ntruss.com/service/161534695_82edef4fbdc84f1cd3b4dfa244787975.jpg?type=m&w=900&h=900&autorotate=true&quality=90",
      "spcTpCd": "MEET",
      "minPrc": 40000,
      "maxPrc": 40000,
      "maxUser": 3,
      "lat": "37.28394176",
      "lng": "127.056778",
      "CORTAR_NO": "4111710200",
      "CITY_LNG_NM": "경기도",
      "CITY_NM": "경기도",
      "DVSN_NM": "수원시 영통구",
      "COUPON_SEQ": null,
      "DISCOUNT_PRICE": null,
      "SEC_NM": "원천동",
      "TAGS": "공유주방,생일파티,요리공방,촬영스튜디오,파티룸",
      "SPCL_TAG_TP_CD": null,
      "REVW_CNT": 0,
      "workSpacePerPsYn": null,
      "odrNo": 0,
      "images": [
        "https://moplqfgeemqv2103108.cdn.ntruss.com/service/161534696_9b3ecf507eb503c9195476121e9931bd.jpg?type=m&w=900&h=900&autorotate=true&quality=90",
        "https://moplqfgeemqv2103108.cdn.ntruss.com/service/161546411_dc362db886c39340cdc675a053069e55.jpg?type=m&w=900&h=900&autorotate=true&quality=90",
        "https://moplqfgeemqv2103108.cdn.ntruss.com/service/161534698_f585017af3403d66fd239683f207611f.png?type=m&w=900&h=900&autorotate=true&quality=90",
        "https://moplqfgeemqv2103108.cdn.ntruss.com/service/161546355_997629565a91e9e70f6194e806c62e75.jpg?type=m&w=900&h=900&autorotate=true&quality=90",
        "https://moplqfgeemqv2103108.cdn.ntruss.com/service/161546409_e8f776647d4bb0e6a3a45d22652227bf.jpg?type=m&w=900&h=900&autorotate=true&quality=90",
        "https://moplqfgeemqv2103108.cdn.ntruss.com/service/161546410_1399730a7472b06f7e0b11411bab83c7.jpg?type=m&w=900&h=900&autorotate=true&quality=90",
        "https://moplqfgeemqv2103108.cdn.ntruss.com/service/161546447_09d1f6d3939f50a0ca25b9b6e58aab6c.jpg?type=m&w=900&h=900&autorotate=true&quality=90"
      ]
    }
  ],
  "origin": "공유주방",
  "duplicated": false,
  "pageTitle": "공유주방"
}