{
  "tcnt": 65,
  "out_param": {
    "tBgramLen": 0,
    "AttendyMin": null,
    "cat": [
      "53"
    ],
    "strQttl": "",
    "qBgram": [],
    "qBgramLen": 0,
    "qPrecision": 0.8,
    "pageCount": 12,
    "notHasTtl": true,
    "filter": {
      "q": "공유주방",
      "page": "3",
      "tcnt": "65",
      "format": "json",
      "controller": "search",
      "action": "spaces",
      "order": "BEST_DESC"
    },
    "skipCount": 24
  },
  "searchParam": {
    "original_query": "공유주방",
    "refined_query": "공유주방 ",
    "typed_querys": [
      {
        "name": "공유주방",
        "type": "CATEGORY"
      }
    ],
    "localities": {
      "strategical_cortar_info": [],
      "city_cortar_info": [],
      "dvsn_cortar_info": [],
      "sec_cortar_info": []
    },
    "categories": [
      {
        "catSeq": 53,
        "catNm": "공유주방"
      }
    ],
    "terms": [],
    "title_terms": [],
    "from_main_search": false,
    "is_subway_search": false,
    "page_count": 12,
    "total_count": 65,
    "page": 3,
    "skip_count": 24,
    "check_coupon": false,
    "seperated_queries": [
      null
    ],
    "ttl_matched": ""
  },
  "filter": {
    "q": "공유주방",
    "page": "3",
    "tcnt": "65",
    "format": "json",
    "controller": "search",
    "action": "spaces",
    "order": "BEST_DESC"
  },
  "result": [
    {
      "spcSeq": 28340,
      "rsvMthCd": "FIXPY",
      "spcNm": "스페이스 보이드",
      "rsvTpCd": "PKG",
      "zzimCnt": 42,
      "spcRepImgUrl": "https://moplqfgeemqv2103108.cdn.ntruss.com/service/161214706_8988ab152f847c16c9e909c699646cf1.jpg?type=m&w=900&h=900&autorotate=true&quality=90",
      "spcTpCd": "MEET",
      "minPrc": 85000,
      "maxPrc": 85000,
      "maxUser": 4,
      "lat": "37.48876184",
      "lng": "127.02188465",
      "CORTAR_NO": "1165010800",
      "CITY_LNG_NM": "서울특별시",
      "CITY_NM": "서울시",
      "DVSN_NM": "서초구",
      "COUPON_SEQ": null,
      "DISCOUNT_PRICE": null,
      "SEC_NM": "서초동",
      "TAGS": "스페이스보이드",
      "SPCL_TAG_TP_CD": null,
      "REVW_CNT": 0,
      "workSpacePerPsYn": null,
      "odrNo": 0,
      "images": [
        "https://moplqfgeemqv2103108.cdn.ntruss.com/service/160378501_f4f1e0558b7b7b7d8504e7f2dd090f44.jpg?type=m&w=900&h=900&autorotate=true&quality=90",
        "https://moplqfgeemqv2103108.cdn.ntruss.com/service/161214707_8988ab152f847c16c9e909c699646cf1.jpg?type=m&w=900&h=900&autorotate=true&quality=90",
        "https://moplqfgeemqv2103108.cdn.ntruss.com/service/161214708_aff18d2f480667667e17da621df79623.jpg?type=m&w=900&h=900&autorotate=true&quality=90",
        "https://moplqfgeemqv2103108.cdn.ntruss.com/service/161214709_b2abf3845a3a10befb4c9827c16e4a8c.jpg?type=m&w=900&h=900&autorotate=true&quality=90",
        "https://moplqfgeemqv2103108.cdn.ntruss.com/service/161214718_bcc9aa7ffadd1cedd4a3c52aafbff46a.jpg?type=m&w=900&h=900&autorotate=true&quality=90",
        "https://moplqfgeemqv2103108.cdn.ntruss.com/service/161214719_90fb6a1604100581861e366c9c82e12c.jpg?type=m&w=900&h=900&autorotate=true&quality=90",
        "https://moplqfgeemqv2103108.cdn.ntruss.com/service/161214723_bcc54750107934c6e7115a5616ee1472.jpg?type=m&w=900&h=900&autorotate=true&quality=90",
        "https://moplqfgeemqv2103108.cdn.ntruss.com/service/161214727_6d4df4c0e79427b07021fd812cfbaa72.jpg?type=m&w=900&h=900&autorotate=true&quality=90",
        "https://moplqfgeemqv2103108.cdn.ntruss.com/service/161214729_b57c3fd188e53ea1fb204b4a50d5a0b0.jpg?type=m&w=900&h=900&autorotate=true&quality=90"
      ]
    },
    {
      "spcSeq": 24044,
      "rsvMthCd": "FIXPY",
      "spcNm": "하이퍼커피(hypercoffee)",
      "rsvTpCd": "TIME",
      "zzimCnt": 17,
      "spcRepImgUrl": "https://moplqfgeemqv2103108.cdn.ntruss.com/service/157871830_9f83ad568379710fd0a352a527ef0f4d.jpg?type=m&w=900&h=900&autorotate=true&quality=90",
      "spcTpCd": "MEET",
      "minPrc": 10000,
      "maxPrc": 10000,
      "maxUser": 20,
      "lat": "37.49458181",
      "lng": "126.88304214",
      "CORTAR_NO": "1153010200",
      "CITY_LNG_NM": "서울특별시",
      "CITY_NM": "서울시",
      "DVSN_NM": "구로구",
      "COUPON_SEQ": null,
      "DISCOUNT_PRICE": null,
      "SEC_NM": "구로동",
      "TAGS": "공간대여,모임공간,소모임,카페대관,파티룸",
      "SPCL_TAG_TP_CD": null,
      "REVW_CNT": 0,
      "workSpacePerPsYn": null,
      "odrNo": 0,
      "images": [
        "https://moplqfgeemqv2103108.cdn.ntruss.com/service/159609792_96f855fc58ca3e81fc8a3720be0167ec.jpg?type=m&w=900&h=900&autorotate=true&quality=90",
        "https://moplqfgeemqv2103108.cdn.ntruss.com/service/159609794_a3cf0c40e78e0c5cfc5739ac209e1125.jpg?type=m&w=900&h=900&autorotate=true&quality=90",
        "https://moplqfgeemqv2103108.cdn.ntruss.com/service/157871832_47ffb3ea2c88b5b937699647464218e7.jpg?type=m&w=900&h=900&autorotate=true&quality=90",
        "https://moplqfgeemqv2103108.cdn.ntruss.com/service/159609782_6f1772e7e7ae9c34a67c47adc489129f.jpg?type=m&w=900&h=900&autorotate=true&quality=90",
        "https://moplqfgeemqv2103108.cdn.ntruss.com/service/159609739_a2170d2606e8f9aa46b8c6d828cb2c86.jpg?type=m&w=900&h=900&autorotate=true&quality=90",
        "https://moplqfgeemqv2103108.cdn.ntruss.com/service/158053138_a6fe4141d61ac2f4bd10f8f3cf03e9cd.jpg?type=m&w=900&h=900&autorotate=true&quality=90",
        "https://moplqfgeemqv2103108.cdn.ntruss.com/service/160697375_295e47afa361b1b9835afd7d324e67a4.jpg?type=m&w=900&h=900&autorotate=true&quality=90"
      ]
    },
    {
      "spcSeq": 2547,
      "rsvMthCd": "FIXPY",
      "spcNm": "스페이스M_홍대 세미나 웨비나 ",
      "rsvTpCd": "TIME",
      "zzimCnt": 303,
      "spcRepImgUrl": "https://moplqfgeemqv2103108.cdn.ntruss.com/service/159223800_6134e26956a28f5d6e58ef2583c19511.JPG?type=m&w=900&h=900&autorotate=true&quality=90",
      "spcTpCd": "MEET",
      "minPrc": 77000,
      "maxPrc": 1650000,
      "maxUser": 90,
      "lat": "37.55454301",
      "lng": "126.91902318",
      "CORTAR_NO": "1144012000",
      "CITY_LNG_NM": "서울특별시",
      "CITY_NM": "서울시",
      "DVSN_NM": "마포구",
      "COUPON_SEQ": null,
      "DISCOUNT_PRICE": null,
      "SEC_NM": "서교동",
      "TAGS": "스트리밍,워크샵,촬영,쿠킹스튜디오,홍대",
      "SPCL_TAG_TP_CD": null,
      "REVW_CNT": 3,
      "workSpacePerPsYn": null,
      "odrNo": 0,
      "images": [
        "https://moplqfgeemqv2103108.cdn.ntruss.com/service/159223866_d33f424a263b62070eaf40698355cafe.jpg?type=m&w=900&h=900&autorotate=true&quality=90",
        "https://moplqfgeemqv2103108.cdn.ntruss.com/service/159223933_50fc26f8082c8c9da18f384f6a413c98.jpg?type=m&w=900&h=900&autorotate=true&quality=90",
        "https://moplqfgeemqv2103108.cdn.ntruss.com/service/159223922_af205c574cd7f63bc026052943ad9a7d.jpg?type=m&w=900&h=900&autorotate=true&quality=90",
        "https://moplqfgeemqv2103108.cdn.ntruss.com/service/159223875_d1932f5a268ed2b73d6a57c2d399f58b.JPG?type=m&w=900&h=900&autorotate=true&quality=90",
        "https://moplqfgeemqv2103108.cdn.ntruss.com/service/159223893_ec039a2994066f5833575b81309ce06f.jpg?type=m&w=900&h=900&autorotate=true&quality=90",
        "https://moplqfgeemqv2103108.cdn.ntruss.com/service/159223907_070d4827cbe1dd5cca0faf32f62cbfc4.JPG?type=m&w=900&h=900&autorotate=true&quality=90",
        "https://moplqfgeemqv2103108.cdn.ntruss.com/pstatic-scloud/20160921_238/1474436489611vraxN_JPEG/DSC_0042.JPG?type=m&w=900&h=900&autorotate=true&quality=90",
        "https://moplqfgeemqv2103108.cdn.ntruss.com/pstatic-scloud/20160921_165/1474436486858QcBSn_JPEG/DSC_0040.JPG?type=m&w=900&h=900&autorotate=true&quality=90",
        "https://moplqfgeemqv2103108.cdn.ntruss.com/pstatic-scloud/20190115_128/1547482341869EA4IQ_JPEG/55.JPG?type=m&w=900&h=900&autorotate=true&quality=90",
        "https://moplqfgeemqv2103108.cdn.ntruss.com/pstatic-scloud/20190115_94/1547484932880b6TcO_JPEG/IMG_8524.jpg?type=m&w=900&h=900&autorotate=true&quality=90"
      ]
    },
    {
      "spcSeq": 10376,
      "rsvMthCd": "FIXPY",
      "spcNm": "망원동 망원시장 공유주방 마이키친",
      "rsvTpCd": "TIME",
      "zzimCnt": 724,
      "spcRepImgUrl": "https://iepdybgueong2014375.cdn.ntruss.com/pstatic-scloud/20171120_245/15111602672572ehdz_JPEG/%25B0%25F8%25C0%25AF%25C1%25D6%25B9%25E6_%25B8%25B6%25C0%25CC%25C5%25B0%25C4%25A3_%25282%2529.jpg",
      "spcTpCd": "MEET",
      "minPrc": 8000,
      "maxPrc": 12000,
      "maxUser": 6,
      "lat": "37.55616",
      "lng": "126.9072",
      "CORTAR_NO": "1144012300",
      "CITY_LNG_NM": "서울특별시",
      "CITY_NM": "서울시",
      "DVSN_NM": "마포구",
      "COUPON_SEQ": null,
      "DISCOUNT_PRICE": null,
      "SEC_NM": "망원동",
      "TAGS": "공유주방,망원시장,소모임,요리,쿠킹스튜디오",
      "SPCL_TAG_TP_CD": null,
      "REVW_CNT": 33,
      "workSpacePerPsYn": null,
      "odrNo": 0,
      "images": [
        "https://iepdybgueong2014375.cdn.ntruss.com/pstatic-scloud/20171120_89/1511160283943nNeSc_JPEG/%25B0%25F8%25C0%25AF%25C1%25D6%25B9%25E6_%25B8%25B6%25C0%25CC%25C5%25B0%25C4%25A3_%25281%2529.jpg",
        "https://iepdybgueong2014375.cdn.ntruss.com/pstatic-scloud/20180514_28/1526276317319ts4jW_JPEG/%25B0%25F8%25C0%25AF%25C1%25D6%25B9%25E6_%25B8%25B6%25C0%25CC%25C5%25B0%25C4%25A3_%25282%2529.jpg",
        "https://iepdybgueong2014375.cdn.ntruss.com/pstatic-scloud/20180514_217/1526276335781BzwW1_JPEG/%25B0%25F8%25C0%25AF%25C1%25D6%25B9%25E6_%25B8%25B6%25C0%25CC%25C5%25B0%25C4%25A3_%25284%2529.jpg",
        "https://iepdybgueong2014375.cdn.ntruss.com/pstatic-scloud/20180514_64/1526276370998Bjguc_JPEG/%25B0%25F8%25C0%25AF%25C1%25D6%25B9%25E6_%25B8%25B6%25C0%25CC%25C5%25B0%25C4%25A3_%25286%2529.jpg",
        "https://iepdybgueong2014375.cdn.ntruss.com/pstatic-scloud/20180514_285/1526276410469LYBYG_JPEG/%25B0%25F8%25C0%25AF%25C1%25D6%25B9%25E6_%25B8%25B6%25C0%25CC%25C5%25B0%25C4%25A3_%25285%2529.jpg",
        "https://iepdybgueong2014375.cdn.ntruss.com/pstatic-scloud/20171120_134/1511161935779brIwR_JPEG/%25B0%25F8%25C0%25AF%25C1%25D6%25B9%25E6_%25B8%25B6%25C0%25CC%25C5%25B0%25C4%25A3_%25283%2529.jpg",
        "https://iepdybgueong2014375.cdn.ntruss.com/pstatic-scloud/20171120_128/1511161984486xUJhk_JPEG/KakaoTalk_20171116_230951301.jpg",
        "https://iepdybgueong2014375.cdn.ntruss.com/pstatic-scloud/20171120_137/15111620011022WVeJ_JPEG/KakaoTalk_20171116_230953711.jpg",
        "https://iepdybgueong2014375.cdn.ntruss.com/pstatic-scloud/20171120_177/1511162017612CwHQ2_JPEG/KakaoTalk_20171116_231001179.jpg"
      ]
    },
    {
      "spcSeq": 16441,
      "rsvMthCd": "FIXPY",
      "spcNm": "서대문빈방 쿠킹스튜디오",
      "rsvTpCd": "TIME",
      "zzimCnt": 283,
      "spcRepImgUrl": "https://moplqfgeemqv2103108.cdn.ntruss.com/service/162615527_944c9aa91b62f6b003b2233dd51409cf.jpeg?type=m&w=900&h=900&autorotate=true&quality=90",
      "spcTpCd": "MEET",
      "minPrc": 15000,
      "maxPrc": 15000,
      "maxUser": 10,
      "lat": "37.56863",
      "lng": "126.96139",
      "CORTAR_NO": "1141010600",
      "CITY_LNG_NM": "서울특별시",
      "CITY_NM": "서울시",
      "DVSN_NM": "서대문구",
      "COUPON_SEQ": null,
      "DISCOUNT_PRICE": null,
      "SEC_NM": "천연동",
      "TAGS": "공유주방,라이브커머스,유투브,촬영,쿠킹스튜디오",
      "SPCL_TAG_TP_CD": null,
      "REVW_CNT": 20,
      "workSpacePerPsYn": null,
      "odrNo": 0,
      "images": [
        "https://moplqfgeemqv2103108.cdn.ntruss.com/pstatic-scloud/20181206_233/154409743545366lIj_JPEG/20181206_205002.jpg?type=m&w=900&h=900&autorotate=true&quality=90",
        "https://moplqfgeemqv2103108.cdn.ntruss.com/pstatic-scloud/20181206_160/15440974432505Jnjx_JPEG/20181206_204914.jpg?type=m&w=900&h=900&autorotate=true&quality=90",
        "https://moplqfgeemqv2103108.cdn.ntruss.com/pstatic-scloud/20181206_226/1544097450658a4Ixc_JPEG/20181206_204404.jpg?type=m&w=900&h=900&autorotate=true&quality=90",
        "https://moplqfgeemqv2103108.cdn.ntruss.com/pstatic-scloud/20181206_117/1544097470459nACuV_JPEG/20181206_205056.jpg?type=m&w=900&h=900&autorotate=true&quality=90",
        "https://moplqfgeemqv2103108.cdn.ntruss.com/pstatic-scloud/20181206_30/15440975292620k8oD_JPEG/20181206_205836.jpg?type=m&w=900&h=900&autorotate=true&quality=90",
        "https://moplqfgeemqv2103108.cdn.ntruss.com/pstatic-scloud/20181206_257/1544097547972DpQ5d_JPEG/1544092927823.jpg?type=m&w=900&h=900&autorotate=true&quality=90",
        "https://moplqfgeemqv2103108.cdn.ntruss.com/pstatic-scloud/20181206_292/15440975582497NeOs_JPEG/1544092942014.jpg?type=m&w=900&h=900&autorotate=true&quality=90",
        "https://moplqfgeemqv2103108.cdn.ntruss.com/pstatic-scloud/20190209_171/1549681704750vBPQ7_JPEG/1549554073410.jpg?type=m&w=900&h=900&autorotate=true&quality=90",
        "https://moplqfgeemqv2103108.cdn.ntruss.com/pstatic-scloud/20190209_67/154968174169645J4W_JPEG/2019-02-08-18-37-48.jpg?type=m&w=900&h=900&autorotate=true&quality=90"
      ]
    },
    {
      "spcSeq": 32495,
      "rsvMthCd": "FIXPY",
      "spcNm": "아키패션(Archifashion)",
      "rsvTpCd": "TIME",
      "zzimCnt": 2,
      "spcRepImgUrl": "https://moplqfgeemqv2103108.cdn.ntruss.com/service/162176280_d0d8c8dee58a16fdc218d9eb279595b3.jpg?type=m&w=900&h=900&autorotate=true&quality=90",
      "spcTpCd": "MEET",
      "minPrc": 20000,
      "maxPrc": 20000,
      "maxUser": 8,
      "lat": "37.51439656",
      "lng": "126.89435527",
      "CORTAR_NO": "1156012000",
      "CITY_LNG_NM": "서울특별시",
      "CITY_NM": "서울시",
      "DVSN_NM": "영등포구",
      "COUPON_SEQ": null,
      "DISCOUNT_PRICE": null,
      "SEC_NM": "문래동2가",
      "TAGS": "문래,문래스튜디오,문래작업실,문래촬영,문래파티룸",
      "SPCL_TAG_TP_CD": null,
      "REVW_CNT": 0,
      "workSpacePerPsYn": null,
      "odrNo": 0,
      "images": [
        "https://moplqfgeemqv2103108.cdn.ntruss.com/service/162176281_a55e7f6d30b18b6b08b895365d00ddbe.jpg?type=m&w=900&h=900&autorotate=true&quality=90",
        "https://moplqfgeemqv2103108.cdn.ntruss.com/service/162176281_c1f9898c738a8274e1fdbc620154b691.jpg?type=m&w=900&h=900&autorotate=true&quality=90",
        "https://moplqfgeemqv2103108.cdn.ntruss.com/service/162176282_be50ec5cb70e2ad2abb745b1d61b90e3.jpg?type=m&w=900&h=900&autorotate=true&quality=90",
        "https://moplqfgeemqv2103108.cdn.ntruss.com/service/162176282_3bb7e6261ae487cf7bb6861cced32301.jpg?type=m&w=900&h=900&autorotate=true&quality=90",
        "https://moplqfgeemqv2103108.cdn.ntruss.com/service/162176283_161217d556289b70bd0b3527125f9dcd.jpg?type=m&w=900&h=900&autorotate=true&quality=90",
        "https://moplqfgeemqv2103108.cdn.ntruss.com/service/162176283_497489771221968aaae854d4b653deca.jpg?type=m&w=900&h=900&autorotate=true&quality=90"
      ]
    },
    {
      "spcSeq": 28635,
      "rsvMthCd": "FIXPY",
      "spcNm": "용인 수지 공유주방 키친이든",
      "rsvTpCd": "TIME",
      "zzimCnt": 80,
      "spcRepImgUrl": "https://moplqfgeemqv2103108.cdn.ntruss.com/service/160484590_b43a25bb6477758f705c43fd7a956331.jpg?type=m&w=900&h=900&autorotate=true&quality=90",
      "spcTpCd": "MEET",
      "minPrc": 13000,
      "maxPrc": 13000,
      "maxUser": 8,
      "lat": "37.33165286",
      "lng": "127.10169335",
      "CORTAR_NO": "4146510100",
      "CITY_LNG_NM": "경기도",
      "CITY_NM": "경기도",
      "DVSN_NM": "용인시 수지구",
      "COUPON_SEQ": null,
      "DISCOUNT_PRICE": null,
      "SEC_NM": "풍덕천동",
      "TAGS": "공유주방,빔프로젝터,요리가능,키친스튜디오",
      "SPCL_TAG_TP_CD": null,
      "REVW_CNT": 6,
      "workSpacePerPsYn": null,
      "odrNo": 0,
      "images": [
        "https://moplqfgeemqv2103108.cdn.ntruss.com/service/160484597_833eead5f861d55b9bcfc6130ba8a973.jpg?type=m&w=900&h=900&autorotate=true&quality=90",
        "https://moplqfgeemqv2103108.cdn.ntruss.com/service/160484600_653591e52091511af7a58f9b24d8e209.jpg?type=m&w=900&h=900&autorotate=true&quality=90",
        "https://moplqfgeemqv2103108.cdn.ntruss.com/service/160484604_6d83d1c651ed324ec7119cc709b7e75a.jpg?type=m&w=900&h=900&autorotate=true&quality=90",
        "https://moplqfgeemqv2103108.cdn.ntruss.com/service/160484616_668d0a03b0a46661e71110f7087b0528.jpg?type=m&w=900&h=900&autorotate=true&quality=90",
        "https://moplqfgeemqv2103108.cdn.ntruss.com/service/160484635_c6ee43db9b70a680bbfb40fe1ee6acd5.jpg?type=m&w=900&h=900&autorotate=true&quality=90",
        "https://moplqfgeemqv2103108.cdn.ntruss.com/service/160484707_c05e3e0a987278c1e9f434e17efb1814.jpg?type=m&w=900&h=900&autorotate=true&quality=90",
        "https://moplqfgeemqv2103108.cdn.ntruss.com/service/160484708_ffb6f5bef25f78da6058198dbb1c55f2.jpg?type=m&w=900&h=900&autorotate=true&quality=90",
        "https://moplqfgeemqv2103108.cdn.ntruss.com/service/160484713_daf85960961cc54683b03e4680caf105.jpg?type=m&w=900&h=900&autorotate=true&quality=90",
        "https://moplqfgeemqv2103108.cdn.ntruss.com/service/160484715_96c032dbdc35af6d58f1e04276a98d19.jpg?type=m&w=900&h=900&autorotate=true&quality=90"
      ]
    },
    {
      "spcSeq": 29509,
      "rsvMthCd": "FIXPY",
      "spcNm": "공간인흑석 (공유주방과 카페)",
      "rsvTpCd": "TIME",
      "zzimCnt": 61,
      "spcRepImgUrl": "https://moplqfgeemqv2103108.cdn.ntruss.com/service/162182958_bae28417c2efab9d7ae8253f9ef488f3.jpg?type=m&w=900&h=900&autorotate=true&quality=90",
      "spcTpCd": "MEET",
      "minPrc": 17000,
      "maxPrc": 17000,
      "maxUser": 8,
      "lat": "37.50928639",
      "lng": "126.95881264",
      "CORTAR_NO": "1159010500",
      "CITY_LNG_NM": "서울특별시",
      "CITY_NM": "서울시",
      "DVSN_NM": "동작구",
      "COUPON_SEQ": null,
      "DISCOUNT_PRICE": null,
      "SEC_NM": "흑석동",
      "TAGS": "공간인흑석,공유주방,주방,카페,파티룸",
      "SPCL_TAG_TP_CD": null,
      "REVW_CNT": 4,
      "workSpacePerPsYn": null,
      "odrNo": 0,
      "images": [
        "https://moplqfgeemqv2103108.cdn.ntruss.com/service/160811128_7350d8f3e0f4b19d9041302010f26732.jpg?type=m&w=900&h=900&autorotate=true&quality=90",
        "https://moplqfgeemqv2103108.cdn.ntruss.com/service/162182973_bc29e4c988aea7ff8f4bebb6d62b7eab.jpg?type=m&w=900&h=900&autorotate=true&quality=90",
        "https://moplqfgeemqv2103108.cdn.ntruss.com/service/162182974_7f5df8a1bd7c6c85a595078026bd9f01.jpg?type=m&w=900&h=900&autorotate=true&quality=90",
        "https://moplqfgeemqv2103108.cdn.ntruss.com/service/162182975_0d29d1f9843e7f7b8589148e8bcdaf00.jpg?type=m&w=900&h=900&autorotate=true&quality=90",
        "https://moplqfgeemqv2103108.cdn.ntruss.com/service/162182977_a5f42b1aec2a54fd24e09c78f2c71f42.jpg?type=m&w=900&h=900&autorotate=true&quality=90",
        "https://moplqfgeemqv2103108.cdn.ntruss.com/service/162182979_39492a393ca7a23d4aed5f69449d73ee.jpg?type=m&w=900&h=900&autorotate=true&quality=90",
        "https://moplqfgeemqv2103108.cdn.ntruss.com/service/162182980_f89a7024503e935ade7143b782f0a721.jpg?type=m&w=900&h=900&autorotate=true&quality=90",
        "https://moplqfgeemqv2103108.cdn.ntruss.com/service/162182981_cd25f7cb6d6530b2ffab2a19faa41699.jpg?type=m&w=900&h=900&autorotate=true&quality=90",
        "https://moplqfgeemqv2103108.cdn.ntruss.com/service/162182982_f82f127a62df69a705a3ad6082db2061.jpg?type=m&w=900&h=900&autorotate=true&quality=90",
        "https://moplqfgeemqv2103108.cdn.ntruss.com/service/162182984_964c8bef0db46b2118207272ee2941fc.jpg?type=m&w=900&h=900&autorotate=true&quality=90"
      ]
    },
    {
      "spcSeq": 24695,
      "rsvMthCd": "FIXPY",
      "spcNm": "비밀의주방 쿠킹스튜디오,공유주방",
      "rsvTpCd": "TIME",
      "zzimCnt": 55,
      "spcRepImgUrl": "https://moplqfgeemqv2103108.cdn.ntruss.com/service/158493946_f297ef6da9a62792775821c568fb2432.jpg?type=m&w=900&h=900&autorotate=true&quality=90",
      "spcTpCd": "MEET",
      "minPrc": 38000,
      "maxPrc": 38000,
      "maxUser": 20,
      "lat": "37.50638939",
      "lng": "127.08171195",
      "CORTAR_NO": "1171010100",
      "CITY_LNG_NM": "서울특별시",
      "CITY_NM": "서울시",
      "DVSN_NM": "송파구",
      "COUPON_SEQ": null,
      "DISCOUNT_PRICE": null,
      "SEC_NM": "잠실동",
      "TAGS": "공유주방,촬영장소,쿠킹스튜디오,쿠킹클래스",
      "SPCL_TAG_TP_CD": null,
      "REVW_CNT": 4,
      "workSpacePerPsYn": null,
      "odrNo": 0,
      "images": [
        "https://moplqfgeemqv2103108.cdn.ntruss.com/service/158262390_db0445c4c120fbb0c891fe15176fb99b.jpg?type=m&w=900&h=900&autorotate=true&quality=90",
        "https://moplqfgeemqv2103108.cdn.ntruss.com/service/158262390_df6383fe0a33fbb2309c44113060a650.jpg?type=m&w=900&h=900&autorotate=true&quality=90",
        "https://moplqfgeemqv2103108.cdn.ntruss.com/service/158493949_bba1338cb43c28ae3c2d01e8529f3890.jpg?type=m&w=900&h=900&autorotate=true&quality=90",
        "https://moplqfgeemqv2103108.cdn.ntruss.com/service/158493951_bba1338cb43c28ae3c2d01e8529f3890.jpg?type=m&w=900&h=900&autorotate=true&quality=90",
        "https://moplqfgeemqv2103108.cdn.ntruss.com/service/158493952_6cb837822fc16d701a858b9132536b95.jpg?type=m&w=900&h=900&autorotate=true&quality=90",
        "https://moplqfgeemqv2103108.cdn.ntruss.com/service/158493952_e29791bcdad34df4996abd924f3fa81c.jpg?type=m&w=900&h=900&autorotate=true&quality=90",
        "https://moplqfgeemqv2103108.cdn.ntruss.com/service/158493953_ae60c103772ce3b22ec298a196c0c829.jpg?type=m&w=900&h=900&autorotate=true&quality=90"
      ]
    },
    {
      "spcSeq": 25057,
      "rsvMthCd": "FIXPY",
      "spcNm": "서울역 공유주방 플레이하우스",
      "rsvTpCd": "PKG",
      "zzimCnt": 64,
      "spcRepImgUrl": "https://moplqfgeemqv2103108.cdn.ntruss.com/service/158562411_58e350ee971465f113f5f9dd8d1149bf.JPG?type=m&w=900&h=900&autorotate=true&quality=90",
      "spcTpCd": "MEET",
      "minPrc": 120000,
      "maxPrc": 120000,
      "maxUser": 8,
      "lat": "37.5534461",
      "lng": "126.97669857",
      "CORTAR_NO": "1117010100",
      "CITY_LNG_NM": "서울특별시",
      "CITY_NM": "서울시",
      "DVSN_NM": "용산구",
      "COUPON_SEQ": null,
      "DISCOUNT_PRICE": null,
      "SEC_NM": "후암동",
      "TAGS": "공간대여,공유주방,서울역,소모임,파티룸",
      "SPCL_TAG_TP_CD": null,
      "REVW_CNT": 3,
      "workSpacePerPsYn": null,
      "odrNo": 0,
      "images": [
        "https://moplqfgeemqv2103108.cdn.ntruss.com/service/158460164_ea40e9e0cc49abf2f21c040b1a3cd596.jpg?type=m&w=900&h=900&autorotate=true&quality=90",
        "https://moplqfgeemqv2103108.cdn.ntruss.com/service/158562404_de153e42d3f3075552efda8fbf334eb9.JPG?type=m&w=900&h=900&autorotate=true&quality=90",
        "https://moplqfgeemqv2103108.cdn.ntruss.com/service/158562405_507a9b6777b449985bf917cf3a3671cf.JPG?type=m&w=900&h=900&autorotate=true&quality=90",
        "https://moplqfgeemqv2103108.cdn.ntruss.com/service/158562405_bdd85cdcc6eef48638194068d43ba306.JPG?type=m&w=900&h=900&autorotate=true&quality=90",
        "https://moplqfgeemqv2103108.cdn.ntruss.com/service/158562409_5911094a1821aceb366117f090b57b19.JPG?type=m&w=900&h=900&autorotate=true&quality=90",
        "https://moplqfgeemqv2103108.cdn.ntruss.com/service/158562418_106c090b9a1453f55df15eb7cab418d8.jpg?type=m&w=900&h=900&autorotate=true&quality=90",
        "https://moplqfgeemqv2103108.cdn.ntruss.com/service/158562420_cd653bf919f7f3c205c52f6407e331a8.jpg?type=m&w=900&h=900&autorotate=true&quality=90",
        "https://moplqfgeemqv2103108.cdn.ntruss.com/service/159118979_9a19f245270028470468e52dc5430251.JPG?type=m&w=900&h=900&autorotate=true&quality=90",
        "https://moplqfgeemqv2103108.cdn.ntruss.com/service/159118979_2dfe44fb99f6e24adeafa9e16cbb9779.JPG?type=m&w=900&h=900&autorotate=true&quality=90",
        "https://moplqfgeemqv2103108.cdn.ntruss.com/service/159118980_d8e41af10c4d6e20a91fb8bd0f493114.JPG?type=m&w=900&h=900&autorotate=true&quality=90"
      ]
    },
    {
      "spcSeq": 30764,
      "rsvMthCd": "RVFIX",
      "spcNm": "삼양청년회관",
      "rsvTpCd": "TIME",
      "zzimCnt": 39,
      "spcRepImgUrl": "https://moplqfgeemqv2103108.cdn.ntruss.com/service/161343600_bb3663b881ed765722942e28b36fc8b9.jpg?type=m&w=900&h=900&autorotate=true&quality=90",
      "spcTpCd": "MEET",
      "minPrc": 3000,
      "maxPrc": 3000,
      "maxUser": 20,
      "lat": "37.62485049",
      "lng": "127.01749722",
      "CORTAR_NO": "1130510100",
      "CITY_LNG_NM": "서울특별시",
      "CITY_NM": "서울시",
      "DVSN_NM": "강북구",
      "COUPON_SEQ": null,
      "DISCOUNT_PRICE": null,
      "SEC_NM": "미아동",
      "TAGS": "강북구,미아동,삼양,삼양역,회의",
      "SPCL_TAG_TP_CD": null,
      "REVW_CNT": 2,
      "workSpacePerPsYn": null,
      "odrNo": 0,
      "images": [
        "https://moplqfgeemqv2103108.cdn.ntruss.com/service/161343602_bb3663b881ed765722942e28b36fc8b9.jpg?type=m&w=900&h=900&autorotate=true&quality=90",
        "https://moplqfgeemqv2103108.cdn.ntruss.com/service/162079993_14d1bf59c3b6febff7fffa3d9ac3dce1.jpg?type=m&w=900&h=900&autorotate=true&quality=90",
        "https://moplqfgeemqv2103108.cdn.ntruss.com/service/162079993_bd5606c3b780d12a04facd3b9dee03a3.jpg?type=m&w=900&h=900&autorotate=true&quality=90",
        "https://moplqfgeemqv2103108.cdn.ntruss.com/service/162080003_0f08e6ada8b9bd9e109e9e612ccbc48c.jpg?type=m&w=900&h=900&autorotate=true&quality=90",
        "https://moplqfgeemqv2103108.cdn.ntruss.com/service/162079984_ca8466cef164a1d151a715008d22b4a6.jpeg?type=m&w=900&h=900&autorotate=true&quality=90",
        "https://moplqfgeemqv2103108.cdn.ntruss.com/service/162079985_4eb09b05749b2f97979c9614d427a9df.jpg?type=m&w=900&h=900&autorotate=true&quality=90",
        "https://moplqfgeemqv2103108.cdn.ntruss.com/service/162079985_e303ddb1ca26d2c795cad5372918cf9e.jpeg?type=m&w=900&h=900&autorotate=true&quality=90"
      ]
    },
    {
      "spcSeq": 27132,
      "rsvMthCd": "FIXPY",
      "spcNm": "샤샤 플레이스  ",
      "rsvTpCd": "TIME",
      "zzimCnt": 21,
      "spcRepImgUrl": "https://moplqfgeemqv2103108.cdn.ntruss.com/service/159740875_fb9df4f5a075c37e8ee3670554b9efa1.jpg?type=m&w=900&h=900&autorotate=true&quality=90",
      "spcTpCd": "MEET",
      "minPrc": 12000,
      "maxPrc": 15000,
      "maxUser": 4,
      "lat": "37.5562017",
      "lng": "126.91882662",
      "CORTAR_NO": "1144012000",
      "CITY_LNG_NM": "서울특별시",
      "CITY_NM": "서울시",
      "DVSN_NM": "마포구",
      "COUPON_SEQ": null,
      "DISCOUNT_PRICE": null,
      "SEC_NM": "서교동",
      "TAGS": "세미나,취미모임,파티룸,회의실",
      "SPCL_TAG_TP_CD": null,
      "REVW_CNT": 2,
      "workSpacePerPsYn": null,
      "odrNo": 0,
      "images": [
        "https://moplqfgeemqv2103108.cdn.ntruss.com/service/159740875_67cbd804359fcdaaa1eb7321352defa0.jpg?type=m&w=900&h=900&autorotate=true&quality=90",
        "https://moplqfgeemqv2103108.cdn.ntruss.com/service/159740876_1fa6e0fb2928c49d062307be66919a57.jpg?type=m&w=900&h=900&autorotate=true&quality=90",
        "https://moplqfgeemqv2103108.cdn.ntruss.com/service/159740877_e52f23825e0678575a735c67d05003ab.jpg?type=m&w=900&h=900&autorotate=true&quality=90",
        "https://moplqfgeemqv2103108.cdn.ntruss.com/service/159740877_1d67b6fafa6ccda2d3ee8f47dcce16b6.jpg?type=m&w=900&h=900&autorotate=true&quality=90",
        "https://moplqfgeemqv2103108.cdn.ntruss.com/service/159740878_d463376337e50ef91a954cd47a6eb28a.jpg?type=m&w=900&h=900&autorotate=true&quality=90"
      ]
    }
  ],
  "origin": "공유주방",
  "duplicated": false,
  "pageTitle": "공유주방"
}