{
  "tcnt": 65,
  "out_param": {
    "tBgramLen": 0,
    "AttendyMin": null,
    "cat": [
      "53"
    ],
    "strQttl": "",
    "qBgram": [],
    "qBgramLen": 0,
    "qPrecision": 0.8,
    "pageCount": 12,
    "notHasTtl": true,
    "filter": {
      "q": "공유주방",
      "page": "5",
      "tcnt": "65",
      "format": "json",
      "controller": "search",
      "action": "spaces",
      "order": "BEST_DESC"
    },
    "skipCount": 48
  },
  "searchParam": {
    "original_query": "공유주방",
    "refined_query": "공유주방 ",
    "typed_querys": [
      {
        "name": "공유주방",
        "type": "CATEGORY"
      }
    ],
    "localities": {
      "strategical_cortar_info": [],
      "city_cortar_info": [],
      "dvsn_cortar_info": [],
      "sec_cortar_info": []
    },
    "categories": [
      {
        "catSeq": 53,
        "catNm": "공유주방"
      }
    ],
    "terms": [],
    "title_terms": [],
    "from_main_search": false,
    "is_subway_search": false,
    "page_count": 12,
    "total_count": 65,
    "page": 5,
    "skip_count": 48,
    "check_coupon": false,
    "seperated_queries": [
      null
    ],
    "ttl_matched": ""
  },
  "filter": {
    "q": "공유주방",
    "page": "5",
    "tcnt": "65",
    "format": "json",
    "controller": "search",
    "action": "spaces",
    "order": "BEST_DESC"
  },
  "result": [
    {
      "spcSeq": 33293,
      "rsvMthCd": "FIXPY",
      "spcNm": "알베로 스튜디오",
      "rsvTpCd": "PKG",
      "zzimCnt": 3,
      "spcRepImgUrl": "https://moplqfgeemqv2103108.cdn.ntruss.com/service/162533038_f293a44be7627a29a6000da1d241d590.jpg?type=m&w=900&h=900&autorotate=true&quality=90",
      "spcTpCd": "MEET",
      "minPrc": 80000,
      "maxPrc": 80000,
      "maxUser": 8,
      "lat": "37.56207952",
      "lng": "126.92665875",
      "CORTAR_NO": "1144012400",
      "CITY_LNG_NM": "서울특별시",
      "CITY_NM": "서울시",
      "DVSN_NM": "마포구",
      "COUPON_SEQ": null,
      "DISCOUNT_PRICE": null,
      "SEC_NM": "연남동",
      "TAGS": "브라이덜샤워,스튜디오,연남동,파티룸,홍대",
      "SPCL_TAG_TP_CD": null,
      "REVW_CNT": 0,
      "workSpacePerPsYn": null,
      "odrNo": 0,
      "images": [
        "https://moplqfgeemqv2103108.cdn.ntruss.com/service/162533040_d021b1bccfcca6e631b0cb5ec4619b1f.jpg?type=m&w=900&h=900&autorotate=true&quality=90",
        "https://moplqfgeemqv2103108.cdn.ntruss.com/service/162533040_751e692123f3a0bba8bafaf32406ca28.jpg?type=m&w=900&h=900&autorotate=true&quality=90",
        "https://moplqfgeemqv2103108.cdn.ntruss.com/service/162533042_97e6b557d6122bf8c5cf03d122635a78.jpg?type=m&w=900&h=900&autorotate=true&quality=90",
        "https://moplqfgeemqv2103108.cdn.ntruss.com/service/162533043_55696096c785d4d057ace7dcf3b9ceaa.jpg?type=m&w=900&h=900&autorotate=true&quality=90",
        "https://moplqfgeemqv2103108.cdn.ntruss.com/service/162533044_6449a5530b8fb592be282b5bac2f9267.jpg?type=m&w=900&h=900&autorotate=true&quality=90",
        "https://moplqfgeemqv2103108.cdn.ntruss.com/service/162533044_fa1f383117a2ea81a338dfcd949849cf.jpg?type=m&w=900&h=900&autorotate=true&quality=90",
        "https://moplqfgeemqv2103108.cdn.ntruss.com/service/162533045_bf7208c50c23ef34439e6fca905fd0e7.jpg?type=m&w=900&h=900&autorotate=true&quality=90",
        "https://moplqfgeemqv2103108.cdn.ntruss.com/service/162533047_f43cc980052df572a30bfd2d5df12a12.jpg?type=m&w=900&h=900&autorotate=true&quality=90",
        "https://moplqfgeemqv2103108.cdn.ntruss.com/service/162533048_d919ee26d291c12ed15c931f5e92c740.jpg?type=m&w=900&h=900&autorotate=true&quality=90"
      ]
    },
    {
      "spcSeq": 32497,
      "rsvMthCd": "FIXPY",
      "spcNm": "마인드핑거 오피스튜디오",
      "rsvTpCd": "TIME",
      "zzimCnt": 6,
      "spcRepImgUrl": "https://moplqfgeemqv2103108.cdn.ntruss.com/service/162178527_5bbc24ea05d7f111d80744b53f8a4f0f.jpg?type=m&w=900&h=900&autorotate=true&quality=90",
      "spcTpCd": "MEET",
      "minPrc": 15000,
      "maxPrc": 15000,
      "maxUser": 4,
      "lat": "37.75885902",
      "lng": "127.03321611",
      "CORTAR_NO": "4115011100",
      "CITY_LNG_NM": "경기도",
      "CITY_NM": "경기도",
      "DVSN_NM": "의정부시",
      "COUPON_SEQ": null,
      "DISCOUNT_PRICE": null,
      "SEC_NM": "녹양동",
      "TAGS": "의정부공간,의정부쇼핑몰,의정부스튜디오,의정부파티룸",
      "SPCL_TAG_TP_CD": null,
      "REVW_CNT": 0,
      "workSpacePerPsYn": null,
      "odrNo": 0,
      "images": [
        "https://moplqfgeemqv2103108.cdn.ntruss.com/service/162178537_b3485f6bec892b55017e07c56cc5a48a.jpg?type=m&w=900&h=900&autorotate=true&quality=90",
        "https://moplqfgeemqv2103108.cdn.ntruss.com/service/162178551_ea5c393658cf0b75470a91b686a7f7eb.jpg?type=m&w=900&h=900&autorotate=true&quality=90",
        "https://moplqfgeemqv2103108.cdn.ntruss.com/service/162178545_c91c242ccbae15a1719adbaea6a3e10a.jpg?type=m&w=900&h=900&autorotate=true&quality=90",
        "https://moplqfgeemqv2103108.cdn.ntruss.com/service/162178545_1c75d82a924b2bc5efcf6066b9ec376e.jpg?type=m&w=900&h=900&autorotate=true&quality=90",
        "https://moplqfgeemqv2103108.cdn.ntruss.com/service/162178548_4168dc74135303851f9b0422d17a798d.jpg?type=m&w=900&h=900&autorotate=true&quality=90",
        "https://moplqfgeemqv2103108.cdn.ntruss.com/service/162178660_ff32a95fecdc21cbc067634bbc7af901.jpg?type=m&w=900&h=900&autorotate=true&quality=90",
        "https://moplqfgeemqv2103108.cdn.ntruss.com/service/162178661_2ec8c9d34a50208ebe31d009c1a5203c.jpg?type=m&w=900&h=900&autorotate=true&quality=90",
        "https://moplqfgeemqv2103108.cdn.ntruss.com/service/162178627_a9fa7a1c82e4bdb71514f6c781177d99.jpg?type=m&w=900&h=900&autorotate=true&quality=90",
        "https://moplqfgeemqv2103108.cdn.ntruss.com/service/162178554_70e8e2cea037954df4acac63224e0972.jpg?type=m&w=900&h=900&autorotate=true&quality=90",
        "https://moplqfgeemqv2103108.cdn.ntruss.com/service/162178614_7d6458c99f1a8e69a521561ecdb550c0.jpg?type=m&w=900&h=900&autorotate=true&quality=90"
      ]
    },
    {
      "spcSeq": 31064,
      "rsvMthCd": "FIXPY",
      "spcNm": "WOAH 아웃도어 키친 앤 다이닝",
      "rsvTpCd": "PKG",
      "zzimCnt": 4,
      "spcRepImgUrl": "https://moplqfgeemqv2103108.cdn.ntruss.com/service/161483314_3c16e92370747878a6a98aecd85b22b5.jpg?type=m&w=900&h=900&autorotate=true&quality=90",
      "spcTpCd": "MEET",
      "minPrc": 60000,
      "maxPrc": 100000,
      "maxUser": 12,
      "lat": "37.46756477",
      "lng": "127.0976343",
      "CORTAR_NO": "1168011100",
      "CITY_LNG_NM": "서울특별시",
      "CITY_NM": "서울시",
      "DVSN_NM": "강남구",
      "COUPON_SEQ": null,
      "DISCOUNT_PRICE": null,
      "SEC_NM": "세곡동",
      "TAGS": "bbq,바베큐,생일파티,아웃도어,야외테라스",
      "SPCL_TAG_TP_CD": null,
      "REVW_CNT": 0,
      "workSpacePerPsYn": null,
      "odrNo": 0,
      "images": [
        "https://moplqfgeemqv2103108.cdn.ntruss.com/service/161483348_610bc9a914c899f7b248eb605e954699.jpg?type=m&w=900&h=900&autorotate=true&quality=90",
        "https://moplqfgeemqv2103108.cdn.ntruss.com/service/161483368_82414bdd2cde40a6a11cc0b788a35295.jpg?type=m&w=900&h=900&autorotate=true&quality=90",
        "https://moplqfgeemqv2103108.cdn.ntruss.com/service/161665305_b0ac62385b6072c311eee5bb44c2a90d.jpg?type=m&w=900&h=900&autorotate=true&quality=90",
        "https://moplqfgeemqv2103108.cdn.ntruss.com/service/161665312_a99328604cbb5f62345de4b9f0620617.jpg?type=m&w=900&h=900&autorotate=true&quality=90",
        "https://moplqfgeemqv2103108.cdn.ntruss.com/service/161665321_8d8bef0180bd86114f71fa2bf2fb4f37.jpg?type=m&w=900&h=900&autorotate=true&quality=90",
        "https://moplqfgeemqv2103108.cdn.ntruss.com/service/161483358_50b787eb3820782042ff4f283fca1c97.jpg?type=m&w=900&h=900&autorotate=true&quality=90",
        "https://moplqfgeemqv2103108.cdn.ntruss.com/service/161483357_da1fb4de1e35273cb6b4c944b4b7c1bd.jpg?type=m&w=900&h=900&autorotate=true&quality=90",
        "https://moplqfgeemqv2103108.cdn.ntruss.com/service/161483379_33625d280cc3d260be825b4726de8a70.jpg?type=m&w=900&h=900&autorotate=true&quality=90",
        "https://moplqfgeemqv2103108.cdn.ntruss.com/service/161483383_9d12e9e0b770283acbaf688144e3492b.jpg?type=m&w=900&h=900&autorotate=true&quality=90"
      ]
    },
    {
      "spcSeq": 29917,
      "rsvMthCd": "FIXPY",
      "spcNm": "파리의 부엌 베이킹스튜디오",
      "rsvTpCd": "TIME",
      "zzimCnt": 3,
      "spcRepImgUrl": "https://moplqfgeemqv2103108.cdn.ntruss.com/service/161890052_11728edbf5bf08bc0f74a7ab02270753.jpg?type=m&w=900&h=900&autorotate=true&quality=90",
      "spcTpCd": "MEET",
      "minPrc": 22000,
      "maxPrc": 22000,
      "maxUser": 4,
      "lat": "37.56863834",
      "lng": "126.82578515",
      "CORTAR_NO": "1150010500",
      "CITY_LNG_NM": "서울특별시",
      "CITY_NM": "서울시",
      "DVSN_NM": "강서구",
      "COUPON_SEQ": null,
      "DISCOUNT_PRICE": null,
      "SEC_NM": "마곡동",
      "TAGS": "베이킹공방,베이킹공방대여,베이킹스튜디오",
      "SPCL_TAG_TP_CD": null,
      "REVW_CNT": 0,
      "workSpacePerPsYn": null,
      "odrNo": 0,
      "images": [
        "https://moplqfgeemqv2103108.cdn.ntruss.com/service/161423286_11728edbf5bf08bc0f74a7ab02270753.jpg?type=m&w=900&h=900&autorotate=true&quality=90",
        "https://moplqfgeemqv2103108.cdn.ntruss.com/service/161890054_d52d9f001a414aac958f8214e9c8d9a1.jpg?type=m&w=900&h=900&autorotate=true&quality=90",
        "https://moplqfgeemqv2103108.cdn.ntruss.com/service/161890056_f0e5167f5fcc631452d878f9ce130db4.jpg?type=m&w=900&h=900&autorotate=true&quality=90",
        "https://moplqfgeemqv2103108.cdn.ntruss.com/service/161890059_1b0160256c34c9f7384ce5279beaa675.jpg?type=m&w=900&h=900&autorotate=true&quality=90"
      ]
    },
    {
      "spcSeq": 22423,
      "rsvMthCd": "FIXPY",
      "spcNm": "월곶식탁",
      "rsvTpCd": "PKG",
      "zzimCnt": 8,
      "spcRepImgUrl": "https://moplqfgeemqv2103108.cdn.ntruss.com/service/157045985_0990e382996e0cedcfec6e0cdd3df5fb.jpg?type=m&w=900&h=900&autorotate=true&quality=90",
      "spcTpCd": "MEET",
      "minPrc": 60000,
      "maxPrc": 60000,
      "maxUser": 10,
      "lat": "37.38816592",
      "lng": "126.73444519",
      "CORTAR_NO": "4139013100",
      "CITY_LNG_NM": "경기도",
      "CITY_NM": "경기도",
      "DVSN_NM": "시흥시",
      "COUPON_SEQ": null,
      "DISCOUNT_PRICE": null,
      "SEC_NM": "월곶동",
      "TAGS": "공유주방,다목적룸,시흥,월곶,회의",
      "SPCL_TAG_TP_CD": null,
      "REVW_CNT": 0,
      "workSpacePerPsYn": null,
      "odrNo": 0,
      "images": [
        "https://moplqfgeemqv2103108.cdn.ntruss.com/service/157045986_656c0e1e6f3138f7b8ff27b6ab00fda7.jpg?type=m&w=900&h=900&autorotate=true&quality=90",
        "https://moplqfgeemqv2103108.cdn.ntruss.com/service/157045988_a46b7860447fcc3de6c9770768ccaa9d.jpg?type=m&w=900&h=900&autorotate=true&quality=90",
        "https://moplqfgeemqv2103108.cdn.ntruss.com/service/157045989_9c2bfc8ccb91123ecd97b3724ec67498.jpg?type=m&w=900&h=900&autorotate=true&quality=90",
        "https://moplqfgeemqv2103108.cdn.ntruss.com/service/157045990_d7d7aec70b157ce719755e905b465ad6.jpg?type=m&w=900&h=900&autorotate=true&quality=90",
        "https://moplqfgeemqv2103108.cdn.ntruss.com/service/157066961_0c124d1332720a2dec5beae532ead295.jpg?type=m&w=900&h=900&autorotate=true&quality=90",
        "https://moplqfgeemqv2103108.cdn.ntruss.com/service/160712594_a9423fdeaf4e3d0bd68cb55545c028de.jpg?type=m&w=900&h=900&autorotate=true&quality=90",
        "https://moplqfgeemqv2103108.cdn.ntruss.com/service/160712595_588277021ca01b7584a4a2aa8b41335f.jpg?type=m&w=900&h=900&autorotate=true&quality=90",
        "https://moplqfgeemqv2103108.cdn.ntruss.com/service/160712596_8fecfa73a9bc8203744505f586f4b2b1.jpg?type=m&w=900&h=900&autorotate=true&quality=90"
      ]
    },
    {
      "spcSeq": 16519,
      "rsvMthCd": "FIXPY",
      "spcNm": "부산베이킹공방 - 초콜릿사랑",
      "rsvTpCd": "TIME",
      "zzimCnt": 9,
      "spcRepImgUrl": "https://moplqfgeemqv2103108.cdn.ntruss.com/pstatic-scloud/20181210_154/1544445658307ttN5M_JPEG/main_atelier.JPG?type=m&w=900&h=900&autorotate=true&quality=90",
      "spcTpCd": "MEET",
      "minPrc": 20000,
      "maxPrc": 20000,
      "maxUser": 8,
      "lat": "35.11174094",
      "lng": "129.11398029",
      "CORTAR_NO": "2629010700",
      "CITY_LNG_NM": "부산광역시",
      "CITY_NM": "부산시",
      "DVSN_NM": "남구",
      "COUPON_SEQ": null,
      "DISCOUNT_PRICE": null,
      "SEC_NM": "용호동",
      "TAGS": "부산,부산공간대여,부산공방,부산베이킹공방,부산베이킹작업실",
      "SPCL_TAG_TP_CD": null,
      "REVW_CNT": 0,
      "workSpacePerPsYn": null,
      "odrNo": 0,
      "images": [
        "https://moplqfgeemqv2103108.cdn.ntruss.com/pstatic-scloud/20181210_33/1544445756617WmXP7_JPEG/IMG_5215.JPG?type=m&w=900&h=900&autorotate=true&quality=90",
        "https://moplqfgeemqv2103108.cdn.ntruss.com/pstatic-scloud/20181210_92/1544445777273AAOHI_JPEG/IMG_5218.JPG?type=m&w=900&h=900&autorotate=true&quality=90",
        "https://moplqfgeemqv2103108.cdn.ntruss.com/pstatic-scloud/20181210_26/1544445789018ceKf8_JPEG/IMG_5214.JPG?type=m&w=900&h=900&autorotate=true&quality=90",
        "https://moplqfgeemqv2103108.cdn.ntruss.com/pstatic-scloud/20181210_234/1544445828558wwPHj_JPEG/IMG_5220.JPG?type=m&w=900&h=900&autorotate=true&quality=90",
        "https://moplqfgeemqv2103108.cdn.ntruss.com/pstatic-scloud/20181210_50/1544445854062moFXe_JPEG/IMG_5224.JPG?type=m&w=900&h=900&autorotate=true&quality=90",
        "https://moplqfgeemqv2103108.cdn.ntruss.com/pstatic-scloud/20181210_256/1544445873016QqvKA_JPEG/IMG_5226.JPG?type=m&w=900&h=900&autorotate=true&quality=90",
        "https://moplqfgeemqv2103108.cdn.ntruss.com/pstatic-scloud/20181210_221/1544445901473Tfi6d_JPEG/IMG_5233.JPG?type=m&w=900&h=900&autorotate=true&quality=90",
        "https://moplqfgeemqv2103108.cdn.ntruss.com/service/155696437_f403a97ecc3cce95ac37fb25d260343d.jpg?type=m&w=900&h=900&autorotate=true&quality=90",
        "https://moplqfgeemqv2103108.cdn.ntruss.com/service/155696444_5d540bf4520320995a1bc23d96da05d2.jpg?type=m&w=900&h=900&autorotate=true&quality=90"
      ]
    },
    {
      "spcSeq": 33707,
      "rsvMthCd": "FIXPY",
      "spcNm": "buoy656",
      "rsvTpCd": "PKG",
      "zzimCnt": 0,
      "spcRepImgUrl": "https://moplqfgeemqv2103108.cdn.ntruss.com/service/162702070_f429ce95026d679648d5d067480dad44.jpg?type=m&w=900&h=900&autorotate=true&quality=90",
      "spcTpCd": "MEET",
      "minPrc": 80000,
      "maxPrc": 240000,
      "maxUser": 14,
      "lat": "35.15652651",
      "lng": "129.05748108",
      "CORTAR_NO": "2623010300",
      "CITY_LNG_NM": "부산광역시",
      "CITY_NM": "부산시",
      "DVSN_NM": "부산진구",
      "COUPON_SEQ": null,
      "DISCOUNT_PRICE": null,
      "SEC_NM": "부전동",
      "TAGS": "부산공간대여,부산브라이덜샤워,부산생일파티,부산서면파티룸,부산파티룸",
      "SPCL_TAG_TP_CD": null,
      "REVW_CNT": 0,
      "workSpacePerPsYn": null,
      "odrNo": 0,
      "images": [
        "https://moplqfgeemqv2103108.cdn.ntruss.com/service/162702073_3c59d4c44882f3b39995d45bf97f20f3.jpg?type=m&w=900&h=900&autorotate=true&quality=90",
        "https://moplqfgeemqv2103108.cdn.ntruss.com/service/162702078_a61a9f3ae0707725b8cf75411d94831c.jpg?type=m&w=900&h=900&autorotate=true&quality=90",
        "https://moplqfgeemqv2103108.cdn.ntruss.com/service/162702079_055c5859424c94e65f635b085af6968e.jpg?type=m&w=900&h=900&autorotate=true&quality=90",
        "https://moplqfgeemqv2103108.cdn.ntruss.com/service/162702080_2178ef3353a5a0103fe574132374f25d.jpg?type=m&w=900&h=900&autorotate=true&quality=90",
        "https://moplqfgeemqv2103108.cdn.ntruss.com/service/162702084_34d12109746b6bf5846d8e1a42638291.jpg?type=m&w=900&h=900&autorotate=true&quality=90",
        "https://moplqfgeemqv2103108.cdn.ntruss.com/service/162702090_4de6c16a81552ddd172d8d11b1c24b4a.jpg?type=m&w=900&h=900&autorotate=true&quality=90",
        "https://moplqfgeemqv2103108.cdn.ntruss.com/service/162702122_3e77986b9ae2f5fe510141f357e72673.jpg?type=m&w=900&h=900&autorotate=true&quality=90",
        "https://moplqfgeemqv2103108.cdn.ntruss.com/service/162702141_2e3a925bd859b8f1fd4babe7a59771a2.jpg?type=m&w=900&h=900&autorotate=true&quality=90",
        "https://moplqfgeemqv2103108.cdn.ntruss.com/service/162702167_e7ef7578f68bb348e61d68211ca333b0.jpg?type=m&w=900&h=900&autorotate=true&quality=90",
        "https://moplqfgeemqv2103108.cdn.ntruss.com/service/162702167_2f049087b0962c0f1e30695b0d9c3eec.jpg?type=m&w=900&h=900&autorotate=true&quality=90"
      ]
    },
    {
      "spcSeq": 33267,
      "rsvMthCd": "FIXPY",
      "spcNm": "동작 커뮤니티",
      "rsvTpCd": "TIME",
      "zzimCnt": 0,
      "spcRepImgUrl": "https://moplqfgeemqv2103108.cdn.ntruss.com/service/162514260_e1a976a919ab83f959b5a3c0a914b72b.jpg?type=m&w=900&h=900&autorotate=true&quality=90",
      "spcTpCd": "MEET",
      "minPrc": 0,
      "maxPrc": 20000,
      "maxUser": 10,
      "lat": "37.51237128",
      "lng": "126.93856479",
      "CORTAR_NO": "1159010100",
      "CITY_LNG_NM": "서울특별시",
      "CITY_NM": "서울시",
      "DVSN_NM": "동작구",
      "COUPON_SEQ": null,
      "DISCOUNT_PRICE": null,
      "SEC_NM": "노량진동",
      "TAGS": "대관,스터디,원데이클래스,카페,카페전체대관",
      "SPCL_TAG_TP_CD": null,
      "REVW_CNT": 0,
      "workSpacePerPsYn": null,
      "odrNo": 0,
      "images": [
        "https://moplqfgeemqv2103108.cdn.ntruss.com/service/162514284_3d0b4108ade515e942da06970dfa8fef.jpg?type=m&w=900&h=900&autorotate=true&quality=90",
        "https://moplqfgeemqv2103108.cdn.ntruss.com/service/162514286_5741d06c7c2047e1d82e9aa74e632a8e.jpg?type=m&w=900&h=900&autorotate=true&quality=90",
        "https://moplqfgeemqv2103108.cdn.ntruss.com/service/162514287_84faba2c73c6f2a23674f53b798b169a.jpg?type=m&w=900&h=900&autorotate=true&quality=90",
        "https://moplqfgeemqv2103108.cdn.ntruss.com/service/162514288_904788ea8e9a3305b4469ede0d6153dc.jpg?type=m&w=900&h=900&autorotate=true&quality=90",
        "https://moplqfgeemqv2103108.cdn.ntruss.com/service/162514288_34c2d3c7da2563594279ffa1d36af963.jpg?type=m&w=900&h=900&autorotate=true&quality=90"
      ]
    },
    {
      "spcSeq": 32300,
      "rsvMthCd": "FIXPY",
      "spcNm": "프롬퓨리티",
      "rsvTpCd": "TIME",
      "zzimCnt": 1,
      "spcRepImgUrl": "https://moplqfgeemqv2103108.cdn.ntruss.com/service/162080282_c6f0b01d9661c3463cdac632f24c7892.jpg?type=m&w=900&h=900&autorotate=true&quality=90",
      "spcTpCd": "MEET",
      "minPrc": 20000,
      "maxPrc": 27000,
      "maxUser": 6,
      "lat": "36.4778052",
      "lng": "127.28783997",
      "CORTAR_NO": "3611010300",
      "CITY_LNG_NM": "세종특별자치시",
      "CITY_NM": "세종시",
      "DVSN_NM": "세종시",
      "COUPON_SEQ": null,
      "DISCOUNT_PRICE": null,
      "SEC_NM": "보람동",
      "TAGS": "대전파티룸,세종브라이덜샤워,세종시스튜디오,세종시파티룸,청주파티룸",
      "SPCL_TAG_TP_CD": null,
      "REVW_CNT": 0,
      "workSpacePerPsYn": null,
      "odrNo": 0,
      "images": [
        "https://moplqfgeemqv2103108.cdn.ntruss.com/service/162080526_d0fc73d48b7b3c0dac61bee46c443fd9.jpg?type=m&w=900&h=900&autorotate=true&quality=90",
        "https://moplqfgeemqv2103108.cdn.ntruss.com/service/162080527_87ae2040fc974816bffba2c6d44dc2f4.jpg?type=m&w=900&h=900&autorotate=true&quality=90",
        "https://moplqfgeemqv2103108.cdn.ntruss.com/service/162080528_ae832238492ca08241ae9e80c5371f2b.jpg?type=m&w=900&h=900&autorotate=true&quality=90",
        "https://moplqfgeemqv2103108.cdn.ntruss.com/service/162080530_dabb4924940f57a5490eec56d0501439.jpg?type=m&w=900&h=900&autorotate=true&quality=90",
        "https://moplqfgeemqv2103108.cdn.ntruss.com/service/162080531_b47f36a747330ff0383e7f57ebbb45bd.jpg?type=m&w=900&h=900&autorotate=true&quality=90",
        "https://moplqfgeemqv2103108.cdn.ntruss.com/service/162080533_f481d55a3a3cfef0639ed989c50f9334.jpg?type=m&w=900&h=900&autorotate=true&quality=90",
        "https://moplqfgeemqv2103108.cdn.ntruss.com/service/162080534_f20b7ca879754de5a51537da6a093cfc.jpg?type=m&w=900&h=900&autorotate=true&quality=90",
        "https://moplqfgeemqv2103108.cdn.ntruss.com/service/162080534_56a497d74d1fa4dbf0f61d78792bdf3e.jpg?type=m&w=900&h=900&autorotate=true&quality=90",
        "https://moplqfgeemqv2103108.cdn.ntruss.com/service/162080535_8a81d03813c87a37d074c72aadf9d139.jpg?type=m&w=900&h=900&autorotate=true&quality=90",
        "https://moplqfgeemqv2103108.cdn.ntruss.com/service/162080536_05f104eb4cfaceeaf9729149c9ea6a55.jpg?type=m&w=900&h=900&autorotate=true&quality=90"
      ]
    },
    {
      "spcSeq": 31648,
      "rsvMthCd": "FIXPY",
      "spcNm": "용인 수지 공유주방, 쿠킹스튜디오",
      "rsvTpCd": "PKG",
      "zzimCnt": 1,
      "spcRepImgUrl": "https://moplqfgeemqv2103108.cdn.ntruss.com/service/161785802_87b19f52ae1b1a2ce06fd2908fc219bf.jpg?type=m&w=900&h=900&autorotate=true&quality=90",
      "spcTpCd": "MEET",
      "minPrc": 120000,
      "maxPrc": 120000,
      "maxUser": 8,
      "lat": "37.33007616",
      "lng": "127.07106041",
      "CORTAR_NO": "4146510500",
      "CITY_LNG_NM": "경기도",
      "CITY_NM": "경기도",
      "DVSN_NM": "용인시 수지구",
      "COUPON_SEQ": null,
      "DISCOUNT_PRICE": null,
      "SEC_NM": "신봉동",
      "TAGS": "공유주방,주방대여,쿠킹스튜디오,파티룸",
      "SPCL_TAG_TP_CD": null,
      "REVW_CNT": 0,
      "workSpacePerPsYn": null,
      "odrNo": 0,
      "images": [
        "https://moplqfgeemqv2103108.cdn.ntruss.com/service/161761494_04ec390fd4b11dd352f3add9bc66b3e3.jpg?type=m&w=900&h=900&autorotate=true&quality=90",
        "https://moplqfgeemqv2103108.cdn.ntruss.com/service/161761495_e5679a6705cc10391b55304189944458.jpg?type=m&w=900&h=900&autorotate=true&quality=90",
        "https://moplqfgeemqv2103108.cdn.ntruss.com/service/161785862_436057fdd6bb5147cc556ff9162b8b44.jpg?type=m&w=900&h=900&autorotate=true&quality=90",
        "https://moplqfgeemqv2103108.cdn.ntruss.com/service/161785863_021ab470283fd2e9fa980ed0e9f5af02.jpg?type=m&w=900&h=900&autorotate=true&quality=90",
        "https://moplqfgeemqv2103108.cdn.ntruss.com/service/161785864_491471e60b4fc52f6a8d9cf4374d1e68.jpg?type=m&w=900&h=900&autorotate=true&quality=90",
        "https://moplqfgeemqv2103108.cdn.ntruss.com/service/161785865_c22187b209be85ffb0e7a0413bef661c.jpg?type=m&w=900&h=900&autorotate=true&quality=90",
        "https://moplqfgeemqv2103108.cdn.ntruss.com/service/161786096_56ee74071c74e74004471c7f9f15bd0d.jpg?type=m&w=900&h=900&autorotate=true&quality=90"
      ]
    },
    {
      "spcSeq": 27685,
      "rsvMthCd": "RVFIX",
      "spcNm": "산본역 메종드뽀 베이킹룸 파티룸",
      "rsvTpCd": "TIME",
      "zzimCnt": 38,
      "spcRepImgUrl": "https://moplqfgeemqv2103108.cdn.ntruss.com/service/160120224_1bbf8ab3cc159959bdf8bd5afcb59acf.jpg?type=m&w=900&h=900&autorotate=true&quality=90",
      "spcTpCd": "MEET",
      "minPrc": 10000,
      "maxPrc": 10000,
      "maxUser": 6,
      "lat": "37.35919041",
      "lng": "126.93294934",
      "CORTAR_NO": "4141010400",
      "CITY_LNG_NM": "경기도",
      "CITY_NM": "경기도",
      "DVSN_NM": "군포시",
      "COUPON_SEQ": null,
      "DISCOUNT_PRICE": null,
      "SEC_NM": "산본동",
      "TAGS": "베이킹공방,베이킹공방대여,베이킹공방쉐어,산본공간대여,산본파티룸",
      "SPCL_TAG_TP_CD": null,
      "REVW_CNT": 2,
      "workSpacePerPsYn": null,
      "odrNo": 0,
      "images": [
        "https://moplqfgeemqv2103108.cdn.ntruss.com/service/162372420_bc5302a88ab78fcbf1daa516aff48f3e.JPG?type=m&w=900&h=900&autorotate=true&quality=90",
        "https://moplqfgeemqv2103108.cdn.ntruss.com/service/162237686_a90c283a69688c835cf6f44b5dbba9b9.jpeg?type=m&w=900&h=900&autorotate=true&quality=90",
        "https://moplqfgeemqv2103108.cdn.ntruss.com/service/162237684_5ba2c49938024ad061252ed5f9a4add0.jpeg?type=m&w=900&h=900&autorotate=true&quality=90",
        "https://moplqfgeemqv2103108.cdn.ntruss.com/service/160120227_8d0225ca71deba38e273b7588eb1fea0.jpg?type=m&w=900&h=900&autorotate=true&quality=90",
        "https://moplqfgeemqv2103108.cdn.ntruss.com/service/160120229_0c393d737cbb11bb54500e9385bbac7f.jpg?type=m&w=900&h=900&autorotate=true&quality=90",
        "https://moplqfgeemqv2103108.cdn.ntruss.com/service/160120229_ebffd354859e72c481b22b4b0430cbc3.jpg?type=m&w=900&h=900&autorotate=true&quality=90",
        "https://moplqfgeemqv2103108.cdn.ntruss.com/service/160648782_9286d6da84b2a6fe803e5d661a9ed767.jpeg?type=m&w=900&h=900&autorotate=true&quality=90",
        "https://moplqfgeemqv2103108.cdn.ntruss.com/service/160708617_23a8517816e39fdda415a73008908a4a.jpeg?type=m&w=900&h=900&autorotate=true&quality=90",
        "https://moplqfgeemqv2103108.cdn.ntruss.com/service/161387746_db771f3a504b7e00073097a942e136ac.jpeg?type=m&w=900&h=900&autorotate=true&quality=90"
      ]
    },
    {
      "spcSeq": 23454,
      "rsvMthCd": "RVFIX",
      "spcNm": "[합정역파티룸] 취사가능 독채공간",
      "rsvTpCd": "TIME",
      "zzimCnt": 39,
      "spcRepImgUrl": "https://moplqfgeemqv2103108.cdn.ntruss.com/service/157794922_a619abca9e96fb2c02d2978f3a8c2820.jpeg?type=m&w=900&h=900&autorotate=true&quality=90",
      "spcTpCd": "MEET",
      "minPrc": 15000,
      "maxPrc": 15000,
      "maxUser": 8,
      "lat": "37.54742492",
      "lng": "126.91873667",
      "CORTAR_NO": "1144012200",
      "CITY_LNG_NM": "서울특별시",
      "CITY_NM": "서울시",
      "DVSN_NM": "마포구",
      "COUPON_SEQ": null,
      "DISCOUNT_PRICE": null,
      "SEC_NM": "합정동",
      "TAGS": "각종모임,독채,스터디룸,장소대관,파티룸",
      "SPCL_TAG_TP_CD": null,
      "REVW_CNT": 1,
      "workSpacePerPsYn": null,
      "odrNo": 0,
      "images": [
        "https://moplqfgeemqv2103108.cdn.ntruss.com/service/160121677_b01256df74a33c4e6769149ea4e85e2a.jpeg?type=m&w=900&h=900&autorotate=true&quality=90",
        "https://moplqfgeemqv2103108.cdn.ntruss.com/service/157780082_99b03e285a58b33df1b0e984be6cc1c0.jpeg?type=m&w=900&h=900&autorotate=true&quality=90",
        "https://moplqfgeemqv2103108.cdn.ntruss.com/service/157745829_f001bf81ca42cbfba8c88d3504b312b8.jpeg?type=m&w=900&h=900&autorotate=true&quality=90",
        "https://moplqfgeemqv2103108.cdn.ntruss.com/service/157754197_ee6ed87493715fa45308cd47a8d60c13.jpeg?type=m&w=900&h=900&autorotate=true&quality=90",
        "https://moplqfgeemqv2103108.cdn.ntruss.com/service/157754202_c93b410c25be8212f07b6a517c5357e8.jpeg?type=m&w=900&h=900&autorotate=true&quality=90",
        "https://moplqfgeemqv2103108.cdn.ntruss.com/service/157585665_9d7440b7ade0183fad6a9cb99be4044c.jpeg?type=m&w=900&h=900&autorotate=true&quality=90",
        "https://moplqfgeemqv2103108.cdn.ntruss.com/service/157745849_5bd765ca6f78818c50892f56a534b477.jpeg?type=m&w=900&h=900&autorotate=true&quality=90",
        "https://moplqfgeemqv2103108.cdn.ntruss.com/service/157745977_3a8dcc974c770e6e07c4738f51060ddc.jpeg?type=m&w=900&h=900&autorotate=true&quality=90",
        "https://moplqfgeemqv2103108.cdn.ntruss.com/service/157562608_d90ad5de8bf8775b1c56266d44559f87.jpeg?type=m&w=900&h=900&autorotate=true&quality=90"
      ]
    }
  ],
  "origin": "공유주방",
  "duplicated": false,
  "pageTitle": "공유주방"
}