{
  "tcnt": 65,
  "out_param": {
    "tBgramLen": 0,
    "AttendyMin": null,
    "cat": [
      "53"
    ],
    "strQttl": "",
    "qBgram": [],
    "qBgramLen": 0,
    "qPrecision": 0.8,
    "pageCount": 12,
    "notHasTtl": true,
    "filter": {
      "q": "공유주방",
      "page": "1",
      "format": "json",
      "controller": "search",
      "action": "spaces",
      "order": "BEST_DESC"
    },
    "skipCount": 0
  },
  "searchParam": {
    "original_query": "공유주방",
    "refined_query": "공유주방 ",
    "typed_querys": [
      {
        "name": "공유주방",
        "type": "CATEGORY"
      }
    ],
    "localities": {
      "strategical_cortar_info": [],
      "city_cortar_info": [],
      "dvsn_cortar_info": [],
      "sec_cortar_info": []
    },
    "categories": [
      {
        "catSeq": 53,
        "catNm": "공유주방"
      }
    ],
    "terms": [],
    "title_terms": [],
    "from_main_search": false,
    "is_subway_search": false,
    "page_count": 12,
    "total_count": 65,
    "page": 1,
    "skip_count": 0,
    "check_coupon": false,
    "seperated_queries": [
      null
    ],
    "ttl_matched": ""
  },
  "filter": {
    "q": "공유주방",
    "page": "1",
    "format": "json",
    "controller": "search",
    "action": "spaces",
    "order": "BEST_DESC"
  },
  
                                      
  
  "result": [
    {
      "spcSeq": 29349,
      "rsvMthCd": "NOWPY",
      "spcNm": "홍대 파티룸 스파[7월 특가]",
      "rsvTpCd": "PKG",
      "zzimCnt": 239,
      "spcRepImgUrl": "https://moplqfgeemqv2103108.cdn.ntruss.com/service/160743323_18dc48d5b8de7af39b6f67bdd393684c.jpg?type=m&w=900&h=900&autorotate=true&quality=90",
      "spcTpCd": "MEET",
      "minPrc": 50000,
      "maxPrc": 80000,
      "maxUser": 4,
      "lat": "37.54861841",
      "lng": "126.91982739",
      "CORTAR_NO": "1144012000",          
      "CITY_LNG_NM": "서울특별시",
      "CITY_NM": "서울시",
      "DVSN_NM": "마포구",
      "COUPON_SEQ": null,
      "DISCOUNT_PRICE": null,
      "SEC_NM": "서교동",
      "TAGS": "동호회,생일파티,연말모임,프로포즈,홍대파티룸",
      "SPCL_TAG_TP_CD": null,
      "REVW_CNT": 10,
      "workSpacePerPsYn": null,
      "odrNo": 0,
      "images": [
        "https://moplqfgeemqv2103108.cdn.ntruss.com/service/160709779_4e5e21f502948b2319c012f433e11cc0.jpg?type=m&w=900&h=900&autorotate=true&quality=90",
        "https://moplqfgeemqv2103108.cdn.ntruss.com/service/160760740_a00b4fbaec3bc28465bbce4eafe2cb3d.jpg?type=m&w=900&h=900&autorotate=true&quality=90",
        "https://moplqfgeemqv2103108.cdn.ntruss.com/service/160760741_94ecbcaddcc52816948f7c02e7dce1ce.jpg?type=m&w=900&h=900&autorotate=true&quality=90",
        "https://moplqfgeemqv2103108.cdn.ntruss.com/service/160760747_167a02cfdacb33c515510c10fba6d724.jpg?type=m&w=900&h=900&autorotate=true&quality=90",
        "https://moplqfgeemqv2103108.cdn.ntruss.com/service/160760748_68afeea0ebf14ebf1061e988a4750a7b.jpg?type=m&w=900&h=900&autorotate=true&quality=90",
        "https://moplqfgeemqv2103108.cdn.ntruss.com/service/160760750_3295985f2a07118af4c0d6098cead6a5.jpg?type=m&w=900&h=900&autorotate=true&quality=90",
        "https://moplqfgeemqv2103108.cdn.ntruss.com/service/160760754_63d7f6d8a713a4ee7632e06f868bdfc0.jpg?type=m&w=900&h=900&autorotate=true&quality=90",
        "https://moplqfgeemqv2103108.cdn.ntruss.com/service/160760755_12f91a85d9c9ae010df00db4c43b7fa6.jpg?type=m&w=900&h=900&autorotate=true&quality=90",
        "https://moplqfgeemqv2103108.cdn.ntruss.com/service/160760756_2d9ff56f3e51da82c43f83e060161ecd.jpg?type=m&w=900&h=900&autorotate=true&quality=90",
        "https://moplqfgeemqv2103108.cdn.ntruss.com/service/160760941_4cb9c70973189e4ec6e4992c2603d686.jpg?type=m&w=900&h=900&autorotate=true&quality=90"
      ]
    },
    {
      "spcSeq": 27877,
      "rsvMthCd": "NOWPY",
      "spcNm": "혜화 에피소드. [새거리두기특가]",
      "rsvTpCd": "PKG",
      "zzimCnt": 287,
      "spcRepImgUrl": "https://moplqfgeemqv2103108.cdn.ntruss.com/service/160319243_f3ccdd27d2000e3f9255a7e3e2c48800.jpg?type=m&w=900&h=900&autorotate=true&quality=90",
      "spcTpCd": "MEET",
      "minPrc": 50000,
      "maxPrc": 66000,
      "maxUser": 4,
      "lat": "37.58210205",
      "lng": "126.99973474",
      "CORTAR_NO": "1111017200",
      "CITY_LNG_NM": "서울특별시",
      "CITY_NM": "서울시",
      "DVSN_NM": "종로구",
      "COUPON_SEQ": null,
      "DISCOUNT_PRICE": null,
      "SEC_NM": "명륜4가",
      "TAGS": "대학로,대학로파티룸,파티룸,해화파티룸,혜화",
      "SPCL_TAG_TP_CD": null,
      "REVW_CNT": 3,
      "workSpacePerPsYn": null,
      "odrNo": 0,
      "images": [
        "https://moplqfgeemqv2103108.cdn.ntruss.com/service/160319245_156005c5baf40ff51a327f1c34f2975b.jpg?type=m&w=900&h=900&autorotate=true&quality=90",
        "https://moplqfgeemqv2103108.cdn.ntruss.com/service/160319246_799bad5a3b514f096e69bbc4a7896cd9.jpg?type=m&w=900&h=900&autorotate=true&quality=90",
        "https://moplqfgeemqv2103108.cdn.ntruss.com/service/160319247_032b2cc936860b03048302d991c3498f.jpg?type=m&w=900&h=900&autorotate=true&quality=90",
        "https://moplqfgeemqv2103108.cdn.ntruss.com/service/160319248_18e2999891374a475d0687ca9f989d83.jpg?type=m&w=900&h=900&autorotate=true&quality=90",
        "https://moplqfgeemqv2103108.cdn.ntruss.com/service/160319249_fe5df232cafa4c4e0f1a0294418e5660.jpg?type=m&w=900&h=900&autorotate=true&quality=90",
        "https://moplqfgeemqv2103108.cdn.ntruss.com/service/160319251_30e62fddc14c05988b44e7c02788e187.jpg?type=m&w=900&h=900&autorotate=true&quality=90",
        "https://moplqfgeemqv2103108.cdn.ntruss.com/service/160319251_ae566253288191ce5d879e51dae1d8c3.jpg?type=m&w=900&h=900&autorotate=true&quality=90",
        "https://moplqfgeemqv2103108.cdn.ntruss.com/service/160319252_8df7b73a7820f4aef47864f2a6c5fccf.jpg?type=m&w=900&h=900&autorotate=true&quality=90",
        "https://moplqfgeemqv2103108.cdn.ntruss.com/service/160319253_9414a8f5b810972c3c9a0e2860c07532.jpg?type=m&w=900&h=900&autorotate=true&quality=90",
        "https://moplqfgeemqv2103108.cdn.ntruss.com/service/160319253_d0096ec6c83575373e3a21d129ff8fef.jpg?type=m&w=900&h=900&autorotate=true&quality=90"
      ]
    },
    {
      "spcSeq": 26533,
      "rsvMthCd": "NOWPY",
      "spcNm": "[강남클래스302] 오피스 신논현",
      "rsvTpCd": "TIME",
      "zzimCnt": 249,
      "spcRepImgUrl": "https://moplqfgeemqv2103108.cdn.ntruss.com/service/159522817_012d98ca651d8a48a90157b73d11a953.jpeg?type=m&w=900&h=900&autorotate=true&quality=90",
      "spcTpCd": "MEET",
      "minPrc": 9700,
      "maxPrc": 55000,
      "maxUser": 8,
      "lat": "37.50311265",
      "lng": "127.02177812",
      "CORTAR_NO": "1165010800",
      "CITY_LNG_NM": "서울특별시",
      "CITY_NM": "서울시",
      "DVSN_NM": "서초구",
      "COUPON_SEQ": null,
      "DISCOUNT_PRICE": null,
      "SEC_NM": "서초동",
      "TAGS": "강남,강남역,스터디룸,신논현역,종일",
      "SPCL_TAG_TP_CD": null,
      "REVW_CNT": 57,
      "workSpacePerPsYn": null,
      "odrNo": 0,
      "images": [
        "https://moplqfgeemqv2103108.cdn.ntruss.com/service/159522807_012d98ca651d8a48a90157b73d11a953.jpeg?type=m&w=900&h=900&autorotate=true&quality=90",
        "https://moplqfgeemqv2103108.cdn.ntruss.com/service/159522808_b17c67f299afc738e120e62a4ccf74f8.jpeg?type=m&w=900&h=900&autorotate=true&quality=90",
        "https://moplqfgeemqv2103108.cdn.ntruss.com/service/159522809_07f3ee6f4dff26c6d2925abebc2eaa90.jpeg?type=m&w=900&h=900&autorotate=true&quality=90",
        "https://moplqfgeemqv2103108.cdn.ntruss.com/service/159522813_025991112ca75a35e5f969a00c418e4b.jpeg?type=m&w=900&h=900&autorotate=true&quality=90",
        "https://moplqfgeemqv2103108.cdn.ntruss.com/service/159522814_df04d5de90e107e516daa7a62601862a.jpeg?type=m&w=900&h=900&autorotate=true&quality=90",
        "https://moplqfgeemqv2103108.cdn.ntruss.com/service/160697498_796460375803e5447431111fa0e83ea1.jpeg?type=m&w=900&h=900&autorotate=true&quality=90",
        "https://moplqfgeemqv2103108.cdn.ntruss.com/service/160697499_a4bcbe22b22887bff1ee598e8dea98ab.jpeg?type=m&w=900&h=900&autorotate=true&quality=90",
        "https://moplqfgeemqv2103108.cdn.ntruss.com/service/160697503_5ad94711e3b9a3cf532d959ebf2b388b.jpeg?type=m&w=900&h=900&autorotate=true&quality=90",
        "https://moplqfgeemqv2103108.cdn.ntruss.com/service/160697504_b9c7743c8f82ef2971184f0e03f66923.jpeg?type=m&w=900&h=900&autorotate=true&quality=90",
        "https://moplqfgeemqv2103108.cdn.ntruss.com/service/160697507_edbbcbbe15978c212d64c4cf2a461933.jpeg?type=m&w=900&h=900&autorotate=true&quality=90"
      ]
    },
    {
      "spcSeq": 20003,
      "rsvMthCd": "NOWPY",
      "spcNm": "그날의무드 ",
      "rsvTpCd": "TIME",
      "zzimCnt": 444,
      "spcRepImgUrl": "https://moplqfgeemqv2103108.cdn.ntruss.com/service/162227070_282f9e1e159925742a293996e3563d19.jpeg?type=m&w=900&h=900&autorotate=true&quality=90",
      "spcTpCd": "MEET",
      "minPrc": 20000,
      "maxPrc": 20000,
      "maxUser": 4,
      "lat": "37.556927",
      "lng": "126.95528",
      "CORTAR_NO": "1144010100",
      "CITY_LNG_NM": "서울특별시",
      "CITY_NM": "서울시",
      "DVSN_NM": "마포구",
      "COUPON_SEQ": null,
      "DISCOUNT_PRICE": null,
      "SEC_NM": "아현동",
      "TAGS": "공간대여,공유주방,렌탈스튜디오,브라이덜샤워,파티룸",
      "SPCL_TAG_TP_CD": null,
      "REVW_CNT": 13,
      "workSpacePerPsYn": null,
      "odrNo": 0,
      "images": [
        "https://moplqfgeemqv2103108.cdn.ntruss.com/service/162641796_62df138d675ac46ff2906a182c318881.jpeg?type=m&w=900&h=900&autorotate=true&quality=90",
        "https://moplqfgeemqv2103108.cdn.ntruss.com/service/162407262_3f7c5192e43e761cdbab70a4258689dc.jpeg?type=m&w=900&h=900&autorotate=true&quality=90",
        "https://moplqfgeemqv2103108.cdn.ntruss.com/service/162227081_4fad7462cb3e745da0c80dbb9636c41e.jpeg?type=m&w=900&h=900&autorotate=true&quality=90",
        "https://moplqfgeemqv2103108.cdn.ntruss.com/service/162227083_92ef836a475c4df30ca7d8f6b623b036.jpeg?type=m&w=900&h=900&autorotate=true&quality=90",
        "https://moplqfgeemqv2103108.cdn.ntruss.com/service/162237096_e7e0366f3b4610e903a1e1900e042ae4.jpeg?type=m&w=900&h=900&autorotate=true&quality=90",
        "https://moplqfgeemqv2103108.cdn.ntruss.com/service/162227091_f68865927231c8c5a739519a668e8439.jpeg?type=m&w=900&h=900&autorotate=true&quality=90",
        "https://moplqfgeemqv2103108.cdn.ntruss.com/service/156186618_e0d60036eff94c13c479d109bece6636.jpeg?type=m&w=900&h=900&autorotate=true&quality=90",
        "https://moplqfgeemqv2103108.cdn.ntruss.com/service/158927929_7b3074f89aa25c18326f5b190d90939a.jpeg?type=m&w=900&h=900&autorotate=true&quality=90",
        "https://moplqfgeemqv2103108.cdn.ntruss.com/service/162641799_a055c9cf50ad085456cbf2f6cb5622db.jpeg?type=m&w=900&h=900&autorotate=true&quality=90",
        "https://moplqfgeemqv2103108.cdn.ntruss.com/service/162641802_d24da8f651aeb2ccaa4a0560fa2d0c6e.jpeg?type=m&w=900&h=900&autorotate=true&quality=90"
      ]
    },
    {
      "spcSeq": 29421,
      "rsvMthCd": "NOWPY",
      "spcNm": "게임아지트 모야 연남점(2인특가)",
      "rsvTpCd": "PKG",
      "zzimCnt": 95,
      "spcRepImgUrl": "https://moplqfgeemqv2103108.cdn.ntruss.com/service/161215754_18feb9cf4cf1ee0800bd04c7fe6bf9f9.jpg?type=m&w=900&h=900&autorotate=true&quality=90",
      "spcTpCd": "MEET",
      "minPrc": 60000,
      "maxPrc": 100000,
      "maxUser": 12,
      "lat": "37.56159576",
      "lng": "126.92648345",
      "CORTAR_NO": "1144012400",
      "CITY_LNG_NM": "서울특별시",
      "CITY_NM": "서울시",
      "DVSN_NM": "마포구",
      "COUPON_SEQ": null,
      "DISCOUNT_PRICE": null,
      "SEC_NM": "연남동",
      "TAGS": "pc,게임,보드게임,연남동,파티룸",
      "SPCL_TAG_TP_CD": null,
      "REVW_CNT": 9,
      "workSpacePerPsYn": null,
      "odrNo": 0,
      "images": [
        "https://moplqfgeemqv2103108.cdn.ntruss.com/service/161215861_ed6679d4b73f42d7e34be18e1b60ebd9.png?type=m&w=900&h=900&autorotate=true&quality=90",
        "https://moplqfgeemqv2103108.cdn.ntruss.com/service/161215864_214ef51c01f033598c5ad76834bcd0b1.jpg?type=m&w=900&h=900&autorotate=true&quality=90",
        "https://moplqfgeemqv2103108.cdn.ntruss.com/service/161215761_4426b9da3184fbc9bcab9ed16627de1c.jpg?type=m&w=900&h=900&autorotate=true&quality=90",
        "https://moplqfgeemqv2103108.cdn.ntruss.com/service/161215762_fbd5f9ca5ea8f185d0866d50610d1c3d.jpg?type=m&w=900&h=900&autorotate=true&quality=90",
        "https://moplqfgeemqv2103108.cdn.ntruss.com/service/161215760_eb71549ffa5d2f57d58315f43a45767f.jpg?type=m&w=900&h=900&autorotate=true&quality=90",
        "https://moplqfgeemqv2103108.cdn.ntruss.com/service/161215760_75abfd7a1e9fe5aad761b013836fd452.jpg?type=m&w=900&h=900&autorotate=true&quality=90",
        "https://moplqfgeemqv2103108.cdn.ntruss.com/service/161215856_c937579f165d479915ceacce243b0f93.png?type=m&w=900&h=900&autorotate=true&quality=90",
        "https://moplqfgeemqv2103108.cdn.ntruss.com/service/161274117_6c79f201872b94209628d3f75a22fc92.jpg?type=m&w=900&h=900&autorotate=true&quality=90"
      ]
    },
    {
      "spcSeq": 28304,
      "rsvMthCd": "NOWPY",
      "spcNm": "게임아지트 모야 신촌점(2인특가)",
      "rsvTpCd": "PKG",
      "zzimCnt": 233,
      "spcRepImgUrl": "https://moplqfgeemqv2103108.cdn.ntruss.com/service/161228352_d36ae96c9f1fbf013c6b1f29c0306769.jpg?type=m&w=900&h=900&autorotate=true&quality=90",
      "spcTpCd": "MEET",
      "minPrc": 60000,
      "maxPrc": 100000,
      "maxUser": 15,
      "lat": "37.55495235",
      "lng": "126.93795436",
      "CORTAR_NO": "1144011000",
      "CITY_LNG_NM": "서울특별시",
      "CITY_NM": "서울시",
      "DVSN_NM": "마포구",
      "COUPON_SEQ": null,
      "DISCOUNT_PRICE": null,
      "SEC_NM": "노고산동",
      "TAGS": "PC,게임,보드게임,신촌,파티룸",
      "SPCL_TAG_TP_CD": null,
      "REVW_CNT": 31,
      "workSpacePerPsYn": null,
      "odrNo": 0,
      "images": [
        "https://moplqfgeemqv2103108.cdn.ntruss.com/service/161228359_f68328107cd4cfcf87d9858aba93057c.jpg?type=m&w=900&h=900&autorotate=true&quality=90",
        "https://moplqfgeemqv2103108.cdn.ntruss.com/service/161228365_e80501c72b0a010a8169eb034faf2364.jpg?type=m&w=900&h=900&autorotate=true&quality=90",
        "https://moplqfgeemqv2103108.cdn.ntruss.com/service/161215922_8b7658c2e94779456e7384e1074f0118.jpg?type=m&w=900&h=900&autorotate=true&quality=90",
        "https://moplqfgeemqv2103108.cdn.ntruss.com/service/161215930_32a5f692f779dcdc35d36ad42f457a22.jpg?type=m&w=900&h=900&autorotate=true&quality=90",
        "https://moplqfgeemqv2103108.cdn.ntruss.com/service/161216022_0d423c77472c54a34d1b3b52051b815a.jpg?type=m&w=900&h=900&autorotate=true&quality=90",
        "https://moplqfgeemqv2103108.cdn.ntruss.com/service/161618764_a282d5c86dbe384b9814d76a750e43a1.jpg?type=m&w=900&h=900&autorotate=true&quality=90",
        "https://moplqfgeemqv2103108.cdn.ntruss.com/service/160438433_c5fbbabda0c9e14c901a4527b4cfc001.jpg?type=m&w=900&h=900&autorotate=true&quality=90",
        "https://moplqfgeemqv2103108.cdn.ntruss.com/service/160433252_4b175f924fc051ad38ca07f28e82be83.jpg?type=m&w=900&h=900&autorotate=true&quality=90",
        "https://moplqfgeemqv2103108.cdn.ntruss.com/service/161228379_98b31bcd74b6903a75140dd8c4cf5722.jpg?type=m&w=900&h=900&autorotate=true&quality=90",
        "https://moplqfgeemqv2103108.cdn.ntruss.com/service/161274125_becd03a085b703893fb5d63b897976a0.jpg?type=m&w=900&h=900&autorotate=true&quality=90"
      ]
    },
    {
      "spcSeq": 18639,
      "rsvMthCd": "NOWPY",
      "spcNm": "연남동 공유주방 조나단의꿈",
      "rsvTpCd": "TIME",
      "zzimCnt": 467,
      "spcRepImgUrl": "https://moplqfgeemqv2103108.cdn.ntruss.com/service/159963251_4aec564a9a96bce1783427304d65b7bc.jpg?type=m&w=900&h=900&autorotate=true&quality=90",
      "spcTpCd": "MEET",
      "minPrc": 22000,
      "maxPrc": 22000,
      "maxUser": 4,
      "lat": "37.561222",
      "lng": "126.92226",
      "CORTAR_NO": "1144012400",
      "CITY_LNG_NM": "서울특별시",
      "CITY_NM": "서울시",
      "DVSN_NM": "마포구",
      "COUPON_SEQ": null,
      "DISCOUNT_PRICE": null,
      "SEC_NM": "연남동",
      "TAGS": "공유주방,데이트,생일파티,파티룸",
      "SPCL_TAG_TP_CD": null,
      "REVW_CNT": 23,
      "workSpacePerPsYn": null,
      "odrNo": 0,
      "images": [
        "https://moplqfgeemqv2103108.cdn.ntruss.com/pstatic-scloud/20190524_171/1558703144942P41rq_JPEG/KakaoTalk_20190524_185659924_18.jpg?type=m&w=900&h=900&autorotate=true&quality=90",
        "https://moplqfgeemqv2103108.cdn.ntruss.com/service/159963252_94b8d7e7bd2c1b5a8154acf06cef15cb.jpg?type=m&w=900&h=900&autorotate=true&quality=90",
        "https://moplqfgeemqv2103108.cdn.ntruss.com/service/159963253_18222212c976990a1faa1f228206d4d1.jpg?type=m&w=900&h=900&autorotate=true&quality=90",
        "https://moplqfgeemqv2103108.cdn.ntruss.com/service/159963253_ade6eaaad8168d72a43fa6b9bbe16a2c.jpg?type=m&w=900&h=900&autorotate=true&quality=90",
        "https://moplqfgeemqv2103108.cdn.ntruss.com/service/159963254_c3ce79dcabd2411edfd4a95323aae41f.jpg?type=m&w=900&h=900&autorotate=true&quality=90",
        "https://moplqfgeemqv2103108.cdn.ntruss.com/service/159963255_d289f1f67bf7902e8085192a67510a68.jpg?type=m&w=900&h=900&autorotate=true&quality=90",
        "https://moplqfgeemqv2103108.cdn.ntruss.com/service/159963255_7cd0d59f77a7cef7030f5162f5764b13.jpg?type=m&w=900&h=900&autorotate=true&quality=90",
        "https://moplqfgeemqv2103108.cdn.ntruss.com/service/159963260_f35e36a7daaa5af5450624659f45ac31.jpg?type=m&w=900&h=900&autorotate=true&quality=90",
        "https://moplqfgeemqv2103108.cdn.ntruss.com/service/159963263_f89e6455287df1e3526a425b782cbf17.jpg?type=m&w=900&h=900&autorotate=true&quality=90"
      ]
    },
    {
      "spcSeq": 17570,
      "rsvMthCd": "NOWPY",
      "spcNm": "대학로 파티룸 공유주방 - 코스타",
      "rsvTpCd": "TIME",
      "zzimCnt": 556,
      "spcRepImgUrl": "https://moplqfgeemqv2103108.cdn.ntruss.com/service/162654693_41ffd7ba54a4461d836c105d6cc7d236.jpg?type=m&w=900&h=900&autorotate=true&quality=90",
      "spcTpCd": "MEET",
      "minPrc": 11000,
      "maxPrc": 11000,
      "maxUser": 2,
      "lat": "37.587883",
      "lng": "127.00325",
      "CORTAR_NO": "1111016900",
      "CITY_LNG_NM": "서울특별시",
      "CITY_NM": "서울시",
      "DVSN_NM": "종로구",
      "COUPON_SEQ": null,
      "DISCOUNT_PRICE": null,
      "SEC_NM": "혜화동",
      "TAGS": "공유주방,대학로파티룸,워크숍,종로파티룸,촬영스튜디오",
      "SPCL_TAG_TP_CD": null,
      "REVW_CNT": 16,
      "workSpacePerPsYn": null,
      "odrNo": 0,
      "images": [
        "https://moplqfgeemqv2103108.cdn.ntruss.com/service/162654644_0a777325b19b15d5c50ac4dc291d0bb2.jpg?type=m&w=900&h=900&autorotate=true&quality=90",
        "https://moplqfgeemqv2103108.cdn.ntruss.com/service/161216297_a41eb8a2c25568532630de8dae792fec.jpeg?type=m&w=900&h=900&autorotate=true&quality=90",
        "https://moplqfgeemqv2103108.cdn.ntruss.com/service/157041750_576a5a67839304eba1ac1c352745e08c.png?type=m&w=900&h=900&autorotate=true&quality=90",
        "https://moplqfgeemqv2103108.cdn.ntruss.com/service/162654666_86857a8844bb46f2c53dcb6e9c81a5b4.JPG?type=m&w=900&h=900&autorotate=true&quality=90",
        "https://moplqfgeemqv2103108.cdn.ntruss.com/service/162654736_3e96c748bc5adad48105c3318fe54e29.jpg?type=m&w=900&h=900&autorotate=true&quality=90",
        "https://moplqfgeemqv2103108.cdn.ntruss.com/service/162654662_eb2a90c23731860bad909655b2f94710.jpg?type=m&w=900&h=900&autorotate=true&quality=90",
        "https://moplqfgeemqv2103108.cdn.ntruss.com/pstatic-scloud/20190225_297/1551071765034RsjDz_JPEG/%2525C5%2525A9%2525B1%2525E2%2525BA%2525AF%2525C8%2525AF%2525BC%2525BF%2525C7%2525C1%2525C4%2525AB%2525C6%2525E4.jpg?type=m&w=900&h=900&autorotate=true&quality=90",
        "https://moplqfgeemqv2103108.cdn.ntruss.com/service/158107195_191d731a5c3eeec6737bb3cfb48e5def.jpg?type=m&w=900&h=900&autorotate=true&quality=90"
      ]
    },
    {
      "spcSeq": 23985,
      "rsvMthCd": "NOWPY",
      "spcNm": "서교리조트_홍대 조용하게 힙한집",
      "rsvTpCd": "PKG",
      "zzimCnt": 177,
      "spcRepImgUrl": "https://moplqfgeemqv2103108.cdn.ntruss.com/service/160183862_edbe8e00001c7e8878d7accc67147fc5.jpg?type=m&w=900&h=900&autorotate=true&quality=90",
      "spcTpCd": "MEET",
      "minPrc": 50000,
      "maxPrc": 50000,
      "maxUser": 4,
      "lat": "37.55540415",
      "lng": "126.9299729",
      "CORTAR_NO": "1144012000",
      "CITY_LNG_NM": "서울특별시",
      "CITY_NM": "서울시",
      "DVSN_NM": "마포구",
      "COUPON_SEQ": null,
      "DISCOUNT_PRICE": null,
      "SEC_NM": "서교동",
      "TAGS": "홍대모임대관,홍대소모임,홍대촬영,홍대촬영대관,홍대파티룸",
      "SPCL_TAG_TP_CD": null,
      "REVW_CNT": 8,
      "workSpacePerPsYn": null,
      "odrNo": 0,
      "images": [
        "https://moplqfgeemqv2103108.cdn.ntruss.com/service/161906559_4c65b1cbee2d612972c3a08f80bf4307.jpg?type=m&w=900&h=900&autorotate=true&quality=90",
        "https://moplqfgeemqv2103108.cdn.ntruss.com/service/160183865_18c0de46c16f72bb82dde672037c4f48.jpg?type=m&w=900&h=900&autorotate=true&quality=90",
        "https://moplqfgeemqv2103108.cdn.ntruss.com/service/160183866_afd7d670644ab9482b8ff49904f8f698.jpg?type=m&w=900&h=900&autorotate=true&quality=90",
        "https://moplqfgeemqv2103108.cdn.ntruss.com/service/160183865_a5107a58cd629d6d012ed6cac09fbf92.jpg?type=m&w=900&h=900&autorotate=true&quality=90",
        "https://moplqfgeemqv2103108.cdn.ntruss.com/service/160183867_52267f11527759200c35538ce9060f9a.jpg?type=m&w=900&h=900&autorotate=true&quality=90",
        "https://moplqfgeemqv2103108.cdn.ntruss.com/service/160183868_7b6e16327c8a49ae18f54b0f4574b2f3.jpg?type=m&w=900&h=900&autorotate=true&quality=90",
        "https://moplqfgeemqv2103108.cdn.ntruss.com/service/160183870_ee60652c600777ea7c089c568ec885e9.jpg?type=m&w=900&h=900&autorotate=true&quality=90",
        "https://moplqfgeemqv2103108.cdn.ntruss.com/service/160183871_04377a9755ba3558bb014555a30a9882.jpg?type=m&w=900&h=900&autorotate=true&quality=90",
        "https://moplqfgeemqv2103108.cdn.ntruss.com/service/160183872_f0fd194d35e8c0272fc955dc5eb443d0.jpg?type=m&w=900&h=900&autorotate=true&quality=90",
        "https://moplqfgeemqv2103108.cdn.ntruss.com/service/157839403_7d13afabff2e74247cc8cc61bc23048a.jpg?type=m&w=900&h=900&autorotate=true&quality=90"
      ]
    },
    {
      "spcSeq": 31222,
      "rsvMthCd": "NOWPY",
      "spcNm": "게임아지트 모야 루프탑(2인특가)",
      "rsvTpCd": "PKG",
      "zzimCnt": 101,
      "spcRepImgUrl": "https://moplqfgeemqv2103108.cdn.ntruss.com/service/161801601_8165c63d3377b30e5ae053380f09e0a7.jpg?type=m&w=900&h=900&autorotate=true&quality=90",
      "spcTpCd": "MEET",
      "minPrc": 60000,
      "maxPrc": 120000,
      "maxUser": 12,
      "lat": "37.5464787",
      "lng": "126.94325795",
      "CORTAR_NO": "1144010800",
      "CITY_LNG_NM": "서울특별시",
      "CITY_NM": "서울시",
      "DVSN_NM": "마포구",
      "COUPON_SEQ": null,
      "DISCOUNT_PRICE": null,
      "SEC_NM": "대흥동",
      "TAGS": "게임,루프탑,마포,바베큐,파티룸",
      "SPCL_TAG_TP_CD": null,
      "REVW_CNT": 4,
      "workSpacePerPsYn": null,
      "odrNo": 0,
      "images": [
        "https://moplqfgeemqv2103108.cdn.ntruss.com/service/161711713_4f1ced10d7700e73a3c7bef78996d971.jpg?type=m&w=900&h=900&autorotate=true&quality=90",
        "https://moplqfgeemqv2103108.cdn.ntruss.com/service/161761016_c6341cb3575619ab48e5b592194850fe.jpg?type=m&w=900&h=900&autorotate=true&quality=90",
        "https://moplqfgeemqv2103108.cdn.ntruss.com/service/161711708_8165c63d3377b30e5ae053380f09e0a7.jpg?type=m&w=900&h=900&autorotate=true&quality=90",
        "https://moplqfgeemqv2103108.cdn.ntruss.com/service/161666747_d45abddc86a8456c9ee28a08fa201258.jpg?type=m&w=900&h=900&autorotate=true&quality=90",
        "https://moplqfgeemqv2103108.cdn.ntruss.com/service/162300061_02c156615b400094cfe13bcb32f2603a.jpg?type=m&w=900&h=900&autorotate=true&quality=90",
        "https://moplqfgeemqv2103108.cdn.ntruss.com/service/161666751_31267c8ef7f299bdea6ec2a13c00d31a.jpg?type=m&w=900&h=900&autorotate=true&quality=90",
        "https://moplqfgeemqv2103108.cdn.ntruss.com/service/162300061_b7ac4b2acdca9e7e8d6908efa12c71c8.jpg?type=m&w=900&h=900&autorotate=true&quality=90",
        "https://moplqfgeemqv2103108.cdn.ntruss.com/service/161771414_4f7ceb9e7bf1152423b9ac7360ab722c.jpg?type=m&w=900&h=900&autorotate=true&quality=90",
        "https://moplqfgeemqv2103108.cdn.ntruss.com/service/161771415_cd15296be65ee35f81b2f8af62b0fd1f.jpg?type=m&w=900&h=900&autorotate=true&quality=90",
        "https://moplqfgeemqv2103108.cdn.ntruss.com/service/161771417_c433cc68db0bd28866c68828a360a2d1.jpg?type=m&w=900&h=900&autorotate=true&quality=90"
      ]
    },
    {
      "spcSeq": 29822,
      "rsvMthCd": "NOWPY",
      "spcNm": "녹사평 공유주방 쉐프를위한주방",
      "rsvTpCd": "PKG",
      "zzimCnt": 41,
      "spcRepImgUrl": "https://moplqfgeemqv2103108.cdn.ntruss.com/service/162273251_4934ebd4b0b1d829924f9ae0122f7c36.JPG?type=m&w=900&h=900&autorotate=true&quality=90",
      "spcTpCd": "MEET",
      "minPrc": 66000,
      "maxPrc": 66000,
      "maxUser": 8,
      "lat": "37.53787881",
      "lng": "126.98903336",
      "CORTAR_NO": "1117013000",
      "CITY_LNG_NM": "서울특별시",
      "CITY_NM": "서울시",
      "DVSN_NM": "용산구",
      "COUPON_SEQ": null,
      "DISCOUNT_PRICE": null,
      "SEC_NM": "이태원동",
      "TAGS": "경리단길,공유주방,녹사평,이태원,장소대여",
      "SPCL_TAG_TP_CD": null,
      "REVW_CNT": 1,
      "workSpacePerPsYn": null,
      "odrNo": 0,
      "images": [
        "https://moplqfgeemqv2103108.cdn.ntruss.com/service/161214388_11c0c48d9609f4195e584470b2b1ee82.jpeg?type=m&w=900&h=900&autorotate=true&quality=90",
        "https://moplqfgeemqv2103108.cdn.ntruss.com/service/162273208_905475a154d99017ac1ecffb37f41646.jpg?type=m&w=900&h=900&autorotate=true&quality=90",
        "https://moplqfgeemqv2103108.cdn.ntruss.com/service/162273207_9fad9851097df74d3083c6dbe677a7fe.JPG?type=m&w=900&h=900&autorotate=true&quality=90",
        "https://moplqfgeemqv2103108.cdn.ntruss.com/service/162273207_d0dca8a32fb0dbca0c46bdac0aec5f6e.JPG?type=m&w=900&h=900&autorotate=true&quality=90",
        "https://moplqfgeemqv2103108.cdn.ntruss.com/service/162273208_3697b9e30195a51e870133bd3200c618.JPG?type=m&w=900&h=900&autorotate=true&quality=90",
        "https://moplqfgeemqv2103108.cdn.ntruss.com/service/162273208_db43b1ad4bb38889fd7811bd31f01e84.jpg?type=m&w=900&h=900&autorotate=true&quality=90",
        "https://moplqfgeemqv2103108.cdn.ntruss.com/service/162273209_1533bebd2a4d7b72e8f925689a77e4f7.jpg?type=m&w=900&h=900&autorotate=true&quality=90",
        "https://moplqfgeemqv2103108.cdn.ntruss.com/service/162273213_da9f74ae4287bb48755804639e25bd6d.JPG?type=m&w=900&h=900&autorotate=true&quality=90",
        "https://moplqfgeemqv2103108.cdn.ntruss.com/service/162273213_b79c0fc7e500d798db270ed2f2e87b74.JPG?type=m&w=900&h=900&autorotate=true&quality=90",
        "https://moplqfgeemqv2103108.cdn.ntruss.com/service/162273259_aa39b766181844f8a8c6d0d53c4692de.JPG?type=m&w=900&h=900&autorotate=true&quality=90"
      ]
    },
    {
      "spcSeq": 31409,
      "rsvMthCd": "NOWPY",
      "spcNm": "[수원 행궁동] 한옥 서연재",
      "rsvTpCd": "TIME",
      "zzimCnt": 38,
      "spcRepImgUrl": "https://moplqfgeemqv2103108.cdn.ntruss.com/service/161658388_eb37b3950455bb4671dbf4385ea304e7.jpeg?type=m&w=900&h=900&autorotate=true&quality=90",
      "spcTpCd": "MEET",
      "minPrc": 20000,
      "maxPrc": 20000,
      "maxUser": 6,
      "lat": "37.28542083",
      "lng": "127.01026953",
      "CORTAR_NO": "4111513100",
      "CITY_LNG_NM": "경기도",
      "CITY_NM": "경기도",
      "DVSN_NM": "수원시 팔달구",
      "COUPON_SEQ": null,
      "DISCOUNT_PRICE": null,
      "SEC_NM": "장안동",
      "TAGS": "마당있는한옥,브라이덜샤워,소규모파티,유튜브촬영,촬영스튜디오",
      "SPCL_TAG_TP_CD": null,
      "REVW_CNT": 0,
      "workSpacePerPsYn": null,
      "odrNo": 0,
      "images": [
        "https://moplqfgeemqv2103108.cdn.ntruss.com/service/161641872_9b23dd7654c2be72a0b97e042229d629.jpeg?type=m&w=900&h=900&autorotate=true&quality=90",
        "https://moplqfgeemqv2103108.cdn.ntruss.com/service/161641877_f304d95544e23543742a6935eaaead49.jpeg?type=m&w=900&h=900&autorotate=true&quality=90",
        "https://moplqfgeemqv2103108.cdn.ntruss.com/service/161641880_4882725a2c39b735084d7d3d0ca48d17.jpeg?type=m&w=900&h=900&autorotate=true&quality=90",
        "https://moplqfgeemqv2103108.cdn.ntruss.com/service/161641885_de36a410806915145e6ae67d8d5eeeec.jpeg?type=m&w=900&h=900&autorotate=true&quality=90",
        "https://moplqfgeemqv2103108.cdn.ntruss.com/service/161658391_164b4ab24f1f239cc3825cfc4950203a.jpeg?type=m&w=900&h=900&autorotate=true&quality=90",
        "https://moplqfgeemqv2103108.cdn.ntruss.com/service/161849137_2b91b6ea153d9e4a5fb22e96764364d9.jpeg?type=m&w=900&h=900&autorotate=true&quality=90",
        "https://moplqfgeemqv2103108.cdn.ntruss.com/service/161849138_9e65652487aa2f2ecf832b6bd063352a.jpeg?type=m&w=900&h=900&autorotate=true&quality=90",
        "https://moplqfgeemqv2103108.cdn.ntruss.com/service/161849139_4d3344616191afd64102123f6626bb2e.jpeg?type=m&w=900&h=900&autorotate=true&quality=90",
        "https://moplqfgeemqv2103108.cdn.ntruss.com/service/161849139_e98b481c0df0ad830fda819dddbb6798.jpeg?type=m&w=900&h=900&autorotate=true&quality=90",
        "https://moplqfgeemqv2103108.cdn.ntruss.com/service/161849143_5f5873a5fd9b3af9210c6a5bed66cab6.jpeg?type=m&w=900&h=900&autorotate=true&quality=90"
      ]
    }
  ],
  "origin": "공유주방",
  "duplicated": false,
  "pageTitle": "공유주방"
}