{
  "tcnt": 65,
  "out_param": {
    "tBgramLen": 0,
    "AttendyMin": null,
    "cat": [
      "53"
    ],
    "strQttl": "",
    "qBgram": [],
    "qBgramLen": 0,
    "qPrecision": 0.8,
    "pageCount": 12,
    "notHasTtl": true,
    "filter": {
      "q": "공유주방",
      "page": "6",
      "tcnt": "65",
      "format": "json",
      "controller": "search",
      "action": "spaces",
      "order": "BEST_DESC"
    },
    "skipCount": 60
  },
  "searchParam": {
    "original_query": "공유주방",
    "refined_query": "공유주방 ",
    "typed_querys": [
      {
        "name": "공유주방",
        "type": "CATEGORY"
      }
    ],
    "localities": {
      "strategical_cortar_info": [],
      "city_cortar_info": [],
      "dvsn_cortar_info": [],
      "sec_cortar_info": []
    },
    "categories": [
      {
        "catSeq": 53,
        "catNm": "공유주방"
      }
    ],
    "terms": [],
    "title_terms": [],
    "from_main_search": false,
    "is_subway_search": false,
    "page_count": 12,
    "total_count": 65,
    "page": 6,
    "skip_count": 60,
    "check_coupon": false,
    "seperated_queries": [
      null
    ],
    "ttl_matched": ""
  },
  "filter": {
    "q": "공유주방",
    "page": "6",
    "tcnt": "65",
    "format": "json",
    "controller": "search",
    "action": "spaces",
    "order": "BEST_DESC"
  },
  "result": [
    {
      "spcSeq": 17596,
      "rsvMthCd": "FIXPY",
      "spcNm": "[상암인근]공유주방쿠킹스튜디오아담",
      "rsvTpCd": "TIME",
      "zzimCnt": 83,
      "spcRepImgUrl": "https://moplqfgeemqv2103108.cdn.ntruss.com/pstatic-scloud/20190211_53/1549868208692Jmhcx_JPEG/%2525B4%2525EB%2525C7%2525A5.jpg?type=m&w=900&h=900&autorotate=true&quality=90",
      "spcTpCd": "MEET",
      "minPrc": 44000,
      "maxPrc": 44000,
      "maxUser": 12,
      "lat": "37.58755",
      "lng": "126.87586",
      "CORTAR_NO": "4128113100",
      "CITY_LNG_NM": "경기도",
      "CITY_NM": "경기도",
      "DVSN_NM": "고양시 덕양구",
      "COUPON_SEQ": null,
      "DISCOUNT_PRICE": null,
      "SEC_NM": "덕은동",
      "TAGS": "30평,공유주방,레시피개발,상암동,유튜브촬영",
      "SPCL_TAG_TP_CD": null,
      "REVW_CNT": 0,
      "workSpacePerPsYn": null,
      "odrNo": 0,
      "images": [
        "https://moplqfgeemqv2103108.cdn.ntruss.com/pstatic-scloud/20190211_232/1549868226695ybP8m_JPEG/%2525C0%2525D4%2525B1%2525B8.jpg?type=m&w=900&h=900&autorotate=true&quality=90",
        "https://moplqfgeemqv2103108.cdn.ntruss.com/pstatic-scloud/20190211_159/15498682563792jBR4_JPEG/%2525C4%2525AB%2525C6%2525E42.jpg?type=m&w=900&h=900&autorotate=true&quality=90",
        "https://moplqfgeemqv2103108.cdn.ntruss.com/pstatic-scloud/20190211_128/1549868298299HFuWs_JPEG/%2525C1%2525D6%2525B9%2525E61.jpg?type=m&w=900&h=900&autorotate=true&quality=90",
        "https://moplqfgeemqv2103108.cdn.ntruss.com/pstatic-scloud/20190211_233/1549868308341D9u7J_JPEG/%2525C1%2525D6%2525B9%2525E62.jpg?type=m&w=900&h=900&autorotate=true&quality=90",
        "https://moplqfgeemqv2103108.cdn.ntruss.com/pstatic-scloud/20190211_135/1549868316169KKPJT_JPEG/%2525C1%2525D6%2525B9%2525E63.jpg?type=m&w=900&h=900&autorotate=true&quality=90",
        "https://moplqfgeemqv2103108.cdn.ntruss.com/pstatic-scloud/20190211_44/1549868325598tVmO0_JPEG/%2525C1%2525D6%2525B9%2525E65.jpg?type=m&w=900&h=900&autorotate=true&quality=90",
        "https://moplqfgeemqv2103108.cdn.ntruss.com/pstatic-scloud/20190211_242/1549868335153VjH81_JPEG/%2525C4%2525AB%2525C6%2525E41.jpg?type=m&w=900&h=900&autorotate=true&quality=90",
        "https://moplqfgeemqv2103108.cdn.ntruss.com/pstatic-scloud/20190211_184/15498683442803NOYB_JPEG/%2525C4%2525AB%2525C6%2525E43.jpg?type=m&w=900&h=900&autorotate=true&quality=90",
        "https://moplqfgeemqv2103108.cdn.ntruss.com/pstatic-scloud/20190211_23/15498683511390QB4d_JPEG/%2525C4%2525AB%2525C6%2525E44.jpg?type=m&w=900&h=900&autorotate=true&quality=90",
        "https://moplqfgeemqv2103108.cdn.ntruss.com/pstatic-scloud/20190211_251/1549868362642E76vg_JPEG/%2525C4%2525AB%2525C6%2525E45.jpg?type=m&w=900&h=900&autorotate=true&quality=90"
      ]
    },
    {
      "spcSeq": 23029,
      "rsvMthCd": "RVFIX",
      "spcNm": "[청춘잡담] 모임, 스터디 공간",
      "rsvTpCd": "TIME",
      "zzimCnt": 13,
      "spcRepImgUrl": "https://moplqfgeemqv2103108.cdn.ntruss.com/service/159038900_a343119b910236ab993d4c7bcee98ea3.jpg?type=m&w=900&h=900&autorotate=true&quality=90",
      "spcTpCd": "MEET",
      "minPrc": 0,
      "maxPrc": 0,
      "maxUser": 4,
      "lat": "36.64384879",
      "lng": "127.4874677",
      "CORTAR_NO": "4311110400",
      "CITY_LNG_NM": "충청북도",
      "CITY_NM": "충청북도",
      "DVSN_NM": "청주시 상당구",
      "COUPON_SEQ": null,
      "DISCOUNT_PRICE": null,
      "SEC_NM": "북문로3가",
      "TAGS": "모임,여성,청년,청춘잡담,회의",
      "SPCL_TAG_TP_CD": null,
      "REVW_CNT": 21,
      "workSpacePerPsYn": null,
      "odrNo": 0,
      "images": [
        "https://moplqfgeemqv2103108.cdn.ntruss.com/service/159038897_a343119b910236ab993d4c7bcee98ea3.jpg?type=m&w=900&h=900&autorotate=true&quality=90",
        "https://moplqfgeemqv2103108.cdn.ntruss.com/service/157361313_c16c63708b67116ecf622f5bad96a8af.jpg?type=m&w=900&h=900&autorotate=true&quality=90",
        "https://moplqfgeemqv2103108.cdn.ntruss.com/service/159038889_e8f3064b26cc401696f04ca355fe25c6.jpg?type=m&w=900&h=900&autorotate=true&quality=90",
        "https://moplqfgeemqv2103108.cdn.ntruss.com/service/157361315_3387e9f05fc4cd08d62069f684e04a45.jpg?type=m&w=900&h=900&autorotate=true&quality=90",
        "https://moplqfgeemqv2103108.cdn.ntruss.com/service/159038892_fa6b47926e0e965e94bad92e44592651.jpg?type=m&w=900&h=900&autorotate=true&quality=90"
      ]
    },
    {
      "spcSeq": 32817,
      "rsvMthCd": "RVFIX",
      "spcNm": "안양 쿠킹스튜디오 [키친 담음새]",
      "rsvTpCd": "TIME",
      "zzimCnt": 3,
      "spcRepImgUrl": "https://moplqfgeemqv2103108.cdn.ntruss.com/service/162307378_3c286bb24150657ed24b02a91ecdd353.JPG?type=m&w=900&h=900&autorotate=true&quality=90",
      "spcTpCd": "MEET",
      "minPrc": 13000,
      "maxPrc": 13000,
      "maxUser": 4,
      "lat": "37.40382296",
      "lng": "126.9644114",
      "CORTAR_NO": "4117310200",
      "CITY_LNG_NM": "경기도",
      "CITY_NM": "경기도",
      "DVSN_NM": "안양시 동안구",
      "COUPON_SEQ": null,
      "DISCOUNT_PRICE": null,
      "SEC_NM": "관양동",
      "TAGS": "생일파티,아담한공간,안양공유주방,인덕원공간대여,커플데이트",
      "SPCL_TAG_TP_CD": null,
      "REVW_CNT": 0,
      "workSpacePerPsYn": null,
      "odrNo": 0,
      "images": [
        "https://moplqfgeemqv2103108.cdn.ntruss.com/service/162609457_019baaaaac27c06fb6dcda07c1e78339.jpg?type=m&w=900&h=900&autorotate=true&quality=90",
        "https://moplqfgeemqv2103108.cdn.ntruss.com/service/162609454_67ea5f63ec03e09acd541f2daffa53a8.jpg?type=m&w=900&h=900&autorotate=true&quality=90",
        "https://moplqfgeemqv2103108.cdn.ntruss.com/service/162609598_22a996fe8b04680333156331cd8dee4b.jpg?type=m&w=900&h=900&autorotate=true&quality=90",
        "https://moplqfgeemqv2103108.cdn.ntruss.com/service/162609463_9e260c1fd00dbced1f8b2e0bfaca22d4.jpg?type=m&w=900&h=900&autorotate=true&quality=90",
        "https://moplqfgeemqv2103108.cdn.ntruss.com/service/162307389_ef1793bf6b380bbdbedde732c85786b8.JPG?type=m&w=900&h=900&autorotate=true&quality=90",
        "https://moplqfgeemqv2103108.cdn.ntruss.com/service/162609465_526769cb3eb3198dcefdf414678f98c4.jpg?type=m&w=900&h=900&autorotate=true&quality=90",
        "https://moplqfgeemqv2103108.cdn.ntruss.com/service/162307421_b934e9d4a39b795647a73154bf736bd5.jpg?type=m&w=900&h=900&autorotate=true&quality=90",
        "https://moplqfgeemqv2103108.cdn.ntruss.com/service/162307435_0b97423afec9f96106a3771824580794.jpg?type=m&w=900&h=900&autorotate=true&quality=90",
        "https://moplqfgeemqv2103108.cdn.ntruss.com/service/162307438_80cc26573f9c93d674e3cd37def6ebf1.jpg?type=m&w=900&h=900&autorotate=true&quality=90",
        "https://moplqfgeemqv2103108.cdn.ntruss.com/service/162342135_eb9a6af1eaba3ed62dbbe69aba8e8fa9.jpg?type=m&w=900&h=900&autorotate=true&quality=90"
      ]
    },
    {
      "spcSeq": 33664,
      "rsvMthCd": "RVFIX",
      "spcNm": "스페이스365",
      "rsvTpCd": "TIME",
      "zzimCnt": 0,
      "spcRepImgUrl": "https://moplqfgeemqv2103108.cdn.ntruss.com/service/162685047_fb7d700a8df4aa39b6e0178424657043.jpg?type=m&w=900&h=900&autorotate=true&quality=90",
      "spcTpCd": "MEET",
      "minPrc": 40000,
      "maxPrc": 40000,
      "maxUser": 30,
      "lat": "37.54874482",
      "lng": "126.92075406",
      "CORTAR_NO": "1144012000",
      "CITY_LNG_NM": "서울특별시",
      "CITY_NM": "서울시",
      "DVSN_NM": "마포구",
      "COUPON_SEQ": null,
      "DISCOUNT_PRICE": null,
      "SEC_NM": "서교동",
      "TAGS": "공간대여,공유레스토랑,공유주방,번개장터,일일호프",
      "SPCL_TAG_TP_CD": null,
      "REVW_CNT": 0,
      "workSpacePerPsYn": null,
      "odrNo": 0,
      "images": [
        "https://moplqfgeemqv2103108.cdn.ntruss.com/service/162685048_d956650a0eef1608ff535e156d4cb2f8.jpg?type=m&w=900&h=900&autorotate=true&quality=90",
        "https://moplqfgeemqv2103108.cdn.ntruss.com/service/162685049_ec909b0e8cb4e89621d14c048b09ad1f.jpg?type=m&w=900&h=900&autorotate=true&quality=90",
        "https://moplqfgeemqv2103108.cdn.ntruss.com/service/162685049_958506307362b27fb10079a21d92520e.jpg?type=m&w=900&h=900&autorotate=true&quality=90",
        "https://moplqfgeemqv2103108.cdn.ntruss.com/service/162685050_f9467ef661f984d7a98ca533198077c5.jpg?type=m&w=900&h=900&autorotate=true&quality=90",
        "https://moplqfgeemqv2103108.cdn.ntruss.com/service/162685050_fbfd50d92dd75d479278dc711423107f.jpg?type=m&w=900&h=900&autorotate=true&quality=90",
        "https://moplqfgeemqv2103108.cdn.ntruss.com/service/162685051_be3ece003de2c9fe78d57316de46b4a0.jpg?type=m&w=900&h=900&autorotate=true&quality=90",
        "https://moplqfgeemqv2103108.cdn.ntruss.com/service/162685051_c514b04146b2997d9c2a73bf6f1640cb.jpg?type=m&w=900&h=900&autorotate=true&quality=90",
        "https://moplqfgeemqv2103108.cdn.ntruss.com/service/162685052_fb7d700a8df4aa39b6e0178424657043.jpg?type=m&w=900&h=900&autorotate=true&quality=90",
        "https://moplqfgeemqv2103108.cdn.ntruss.com/service/162692830_a79265df3950ad0f5e65fc79ee05129d.jpg?type=m&w=900&h=900&autorotate=true&quality=90",
        "https://moplqfgeemqv2103108.cdn.ntruss.com/service/162692831_ae7863ee4fb9baf31d3c9831a0b0e991.jpg?type=m&w=900&h=900&autorotate=true&quality=90"
      ]
    },
    {
      "spcSeq": 24476,
      "rsvMthCd": "RVFIX",
      "spcNm": "[용산] 공유주방 이공오키친",
      "rsvTpCd": "TIME",
      "zzimCnt": 134,
      "spcRepImgUrl": "https://moplqfgeemqv2103108.cdn.ntruss.com/service/158130974_2c92bc92aafa471b303ef504943b4c91.jpg?type=m&w=900&h=900&autorotate=true&quality=90",
      "spcTpCd": "MEET",
      "minPrc": 15000,
      "maxPrc": 15000,
      "maxUser": 10,
      "lat": "37.53405789",
      "lng": "126.97552986",
      "CORTAR_NO": "1117012600",
      "CITY_LNG_NM": "서울특별시",
      "CITY_NM": "서울시",
      "DVSN_NM": "용산구",
      "COUPON_SEQ": null,
      "DISCOUNT_PRICE": null,
      "SEC_NM": "용산동3가",
      "TAGS": "공유주방,공유키친,브라이덜샤워,생일파티,파티룸",
      "SPCL_TAG_TP_CD": null,
      "REVW_CNT": 0,
      "workSpacePerPsYn": null,
      "odrNo": 0,
      "images": [
        "https://moplqfgeemqv2103108.cdn.ntruss.com/service/158130975_a96ef770a3027fde7cdba990fc82aaaf.jpg?type=m&w=900&h=900&autorotate=true&quality=90",
        "https://moplqfgeemqv2103108.cdn.ntruss.com/service/158130977_ea8fe084d4ff1bf87b0366582f893869.jpg?type=m&w=900&h=900&autorotate=true&quality=90",
        "https://moplqfgeemqv2103108.cdn.ntruss.com/service/158130977_016f7ef590ce61c983bbfc01eec65b7d.jpg?type=m&w=900&h=900&autorotate=true&quality=90",
        "https://moplqfgeemqv2103108.cdn.ntruss.com/service/158130977_f5fa15094ebd2dfc76f01545bc73dc80.jpg?type=m&w=900&h=900&autorotate=true&quality=90",
        "https://moplqfgeemqv2103108.cdn.ntruss.com/service/158130978_f78ef8f18780d0aceb9b396beab3069b.jpg?type=m&w=900&h=900&autorotate=true&quality=90",
        "https://moplqfgeemqv2103108.cdn.ntruss.com/service/158130978_5a25d794d0c29bd1b2cf68b6e3023535.jpg?type=m&w=900&h=900&autorotate=true&quality=90",
        "https://moplqfgeemqv2103108.cdn.ntruss.com/service/158130980_ae785e161ae8142058458d80222597a3.jpg?type=m&w=900&h=900&autorotate=true&quality=90",
        "https://moplqfgeemqv2103108.cdn.ntruss.com/service/158130980_2de89947c15cde4f4267a8ba4c7448f8.jpg?type=m&w=900&h=900&autorotate=true&quality=90",
        "https://moplqfgeemqv2103108.cdn.ntruss.com/service/158130980_fcb3a586ba3f2fe857b4a680855ce91e.jpg?type=m&w=900&h=900&autorotate=true&quality=90",
        "https://moplqfgeemqv2103108.cdn.ntruss.com/service/158130980_f8ae51946549e9e2d955ef10f501ca0f.jpg?type=m&w=900&h=900&autorotate=true&quality=90"
      ]
    }
  ],
  "origin": "공유주방",
  "duplicated": false,
  "pageTitle": "공유주방"
}